%YAML 1.1
%TAG !u! tag:unity3d.com,2011:
--- !u!114 &11400000
MonoBehaviour:
  m_ObjectHideFlags: 0
  m_CorrespondingSourceObject: {fileID: 0}
  m_PrefabInternal: {fileID: 0}
  m_GameObject: {fileID: 0}
  m_Enabled: 1
  m_EditorHideFlags: 0
  m_Script: {fileID: 11500000, guid: 13bdc1c990b27b34996b1010b9d3efce, type: 3}
  m_Name: Prototype
  m_EditorClassIdentifier: 
  spawnList:
  - angleIteration: 0
    spawnLimits: {x: 0, y: 4}
    spawnable: {fileID: 114485403879171414, guid: 08e1e35595818ca4b9506535ceba87cd,
      type: 2}
  - angleIteration: 0
    spawnLimits: {x: 15, y: 27}
    spawnable: {fileID: 114206721295833996, guid: 9d7ac1dd423cd0742a0a81ac1af77084,
      type: 2}
  - angleIteration: 6
    spawnLimits: {x: 26, y: 38}
    spawnable: {fileID: 114750241479789810, guid: 008f07760ffac8a46b4a4a15a90d461e,
      type: 2}
  - angleIteration: 0
    spawnLimits: {x: 20, y: 34}
    spawnable: {fileID: 114619965245309350, guid: dd4cb8fe76896604699b7a351fd750e9,
      type: 2}
  - angleIteration: 0
    spawnLimits: {x: 0, y: 2}
    spawnable: {fileID: 114873089754301744, guid: c2e62295f392f7a41b7529569bcc6413,
      type: 2}
  - angleIteration: 0
    spawnLimits: {x: 0, y: 2}
    spawnable: {fileID: 114802335763766650, guid: 9ff7c418a5b0db14db2b26a105ee5738,
      type: 2}
  - angleIteration: 0
    spawnLimits: {x: 3, y: 13}
    spawnable: {fileID: 114349547160498658, guid: 989f71d6ebe471d4bb1a8e3ccf676c63,
      type: 2}
  - angleIteration: 0
    spawnLimits: {x: 4, y: 17}
    spawnable: {fileID: 114289792403401762, guid: b8a30b5b6ad89f348b5e863c867bd12f,
      type: 2}
  - angleIteration: 0
    spawnLimits: {x: 5, y: 11}
    spawnable: {fileID: 114799012010085798, guid: 337ae655ec1047a4f94177fe06550615,
      type: 2}
  - angleIteration: 0
    spawnLimits: {x: 0, y: 21}
    spawnable: {fileID: 114793373513743572, guid: 7468273ad94b10a4e93d9f60553b0883,
      type: 2}
  roomSets:
  - name: Prototype
    Floors:
    - {fileID: 1406674438271978, guid: 870c934eb0c9a7146afbf0d1645f54df, type: 2}
    Corridors_EastWest:
    - {fileID: 1960154817890710, guid: 5386b375a7638ef4781d02abd136f0a1, type: 2}
    Corridors_NorthSouth:
    - {fileID: 1161411643564356, guid: 9d0b63bf68799504d8d687f48bed7300, type: 2}
    Corners_NorthEast:
    - {fileID: 1746815486775418, guid: 05b25ef020c12d24990fff7eee241a31, type: 2}
    Corners_SouthEast:
    - {fileID: 1449249992844466, guid: 474de785b91d0144da024867c88ef30a, type: 2}
    Corners_NorthWest:
    - {fileID: 1614823337591942, guid: 284c78c4f39f3334090355825311a98f, type: 2}
    Corners_SouthWest:
    - {fileID: 1348056675649608, guid: 46cb3dbf9c5e75142ae40012328c4a18, type: 2}
    Walls_East:
    - {fileID: 1579946243788078, guid: 9dcc494b7890e444da9193dcc1a0b571, type: 2}
    - {fileID: 1073900495538408, guid: 8637c72ed65f85b44972d4612ed5d280, type: 2}
    - {fileID: 1303722840884076, guid: 711274e9a830cff449202cf9aea8c094, type: 2}
    - {fileID: 1492043632957808, guid: 0665f7dda7381704eafadcf63b5d1232, type: 2}
    Walls_West:
    - {fileID: 1871544828424964, guid: 12fb48a8be0d41742a86b933aaa6bed8, type: 2}
    - {fileID: 1765972356671078, guid: b40b66646b3bab748a7d1873e62e4b3c, type: 2}
    - {fileID: 1081354612999750, guid: 864675a8512c6be468c80047264e8db5, type: 2}
    - {fileID: 1490580356201446, guid: 65a778ec494934742934ef374546c482, type: 2}
    Walls_North:
    - {fileID: 1548218036141142, guid: 6c7361b1d3f07e64fa507604b3ddc190, type: 2}
    - {fileID: 1043058941143704, guid: cd6a10e4ffe65724bb9006658ad35c8d, type: 2}
    - {fileID: 1622943076947758, guid: 2f836f5d1a98dfe448251f1cfed77b05, type: 2}
    - {fileID: 1085251249962976, guid: cbdddd10e9abafa45960417a822f92e6, type: 2}
    Walls_South:
    - {fileID: 1621740265766850, guid: 07abc9413a4f1ce4bae3fa5b8c3687d1, type: 2}
    - {fileID: 1994097198105458, guid: d952ef60e6bcc0644b4005d144f35107, type: 2}
    - {fileID: 1312923782991346, guid: 3c593654bb1a91a46aa07f70a6058e7e, type: 2}
    - {fileID: 1109085518901070, guid: d531f6eea53248a45bcd21eca38ff71a, type: 2}
    Doors_North:
    - {fileID: 1576882547516150, guid: b79d24dbc5fd16c4da6754b920d6e66c, type: 2}
    Doors_South:
    - {fileID: 1376640130551112, guid: 4635d4574e29f3f469f2bffcd149193f, type: 2}
    Doors_East:
    - {fileID: 1116478886559892, guid: 1805c8cc24cdf614da497a9aac0fe2d8, type: 2}
    Doors_West:
    - {fileID: 1787175392913058, guid: 2d74530623f47354d9ceec6cd779862a, type: 2}
    extraSpawnList: []
  - name: Prototype2
    Floors:
    - {fileID: 1406674438271978, guid: 5d123c327b3134a45a6e770584903134, type: 2}
    Corridors_EastWest:
    - {fileID: 1960154817890710, guid: aa32a09875d2dfd4d94da5cff83fd569, type: 2}
    Corridors_NorthSouth:
    - {fileID: 1161411643564356, guid: 954f577f3dd7893428b23eb07c6de17c, type: 2}
    Corners_NorthEast:
    - {fileID: 1746815486775418, guid: fb08e6bb64012dc40a55378847f9ccbd, type: 2}
    Corners_SouthEast:
    - {fileID: 1449249992844466, guid: ea94900c23476b34d9f7f37afa363ade, type: 2}
    Corners_NorthWest:
    - {fileID: 1614823337591942, guid: 8500bbaa71651564d84a84be8b256b3a, type: 2}
    Corners_SouthWest:
    - {fileID: 1348056675649608, guid: 3ec5ecf97d556054c887ae64f37f7f8b, type: 2}
    Walls_East:
    - {fileID: 1579946243788078, guid: 682f26f75d5ca75428294217fece0488, type: 2}
    - {fileID: 1073900495538408, guid: b3718061ba5c55c4da7f11a4c83e2593, type: 2}
    - {fileID: 1709114044159430, guid: 821f6d9985e5b2b499def8427b900813, type: 2}
    - {fileID: 1124434474854206, guid: e5fc59311a5ead14f858416b5d4f16ef, type: 2}
    Walls_West:
    - {fileID: 1871544828424964, guid: bd406b4656c58fd4b903674b2748abb1, type: 2}
    - {fileID: 1237500279578804, guid: 0d09f0a8edf32534b9e413121b875975, type: 2}
    - {fileID: 1749563253214772, guid: 9474fd3d5f4676c40959683312d1f056, type: 2}
    - {fileID: 1490580356201446, guid: 5baff637a5206444780b04044d95b589, type: 2}
    Walls_North:
    - {fileID: 1548218036141142, guid: 59f4e9cb019a4dc47bdf2d2c2820135d, type: 2}
    - {fileID: 1043058941143704, guid: fb5e4f0ceb68433488eca65c49e301cc, type: 2}
    - {fileID: 1101245142677526, guid: 24a3dc8a8a7be234bb50d519059bfe80, type: 2}
    - {fileID: 1630462560084396, guid: 0adf83d38df39ec4dad83daedcf80b0a, type: 2}
    Walls_South:
    - {fileID: 1621740265766850, guid: 8d871c28ea19a484eaf34d3b4fcd8f0e, type: 2}
    - {fileID: 1301452906927190, guid: 34334a384a99b0b4e8cc0895b991f47a, type: 2}
    - {fileID: 1286508513250466, guid: a193770ff02f82948b122a730c94ac07, type: 2}
    - {fileID: 1109085518901070, guid: 5470b087c0e5e5445917a3af3d3d15c4, type: 2}
    Doors_North:
    - {fileID: 1576882547516150, guid: 84ce6544105494c49805e5013641debc, type: 2}
    Doors_South:
    - {fileID: 1376640130551112, guid: c0abbf0b5bd59d745bbbba7e2e1256e2, type: 2}
    Doors_East:
    - {fileID: 1116478886559892, guid: 55f48c8bbcf1b624dbf546f39bc050cb, type: 2}
    Doors_West:
    - {fileID: 1787175392913058, guid: 0942658a64db91b4aafbe70c3282d97f, type: 2}
    extraSpawnList: []
  doorLimits: {x: 2, y: 4}
  originBias: 1
  tileLimits: {x: 54, y: 119}
  sizeLimits: {x: 8, y: 20}
  roomClusters: 6
