%YAML 1.1
%TAG !u! tag:unity3d.com,2011:
--- !u!181963792 &2655988077585873504
Preset:
  m_ObjectHideFlags: 0
  m_CorrespondingSourceObject: {fileID: 0}
  m_PrefabInternal: {fileID: 0}
  m_Name: TableScreenGreen
  m_TargetType:
    m_NativeTypeID: 21
    m_ManagedTypePPtr: {fileID: 0}
    m_ManagedTypeFallback: 
  m_Properties:
  - target: {fileID: 0}
    propertyPath: m_Name
    value: WarTableTop
    objectReference: {fileID: 0}
  - target: {fileID: 0}
    propertyPath: m_Shader
    value: 
    objectReference: {fileID: 4800000, guid: 20e91c0c8c76ae449ab2cb066a19908a, type: 3}
  - target: {fileID: 0}
    propertyPath: m_ShaderKeywords
    value: _NORMALMAP _REQUIRE_UV2
    objectReference: {fileID: 0}
  - target: {fileID: 0}
    propertyPath: m_LightmapFlags
    value: 4
    objectReference: {fileID: 0}
  - target: {fileID: 0}
    propertyPath: m_EnableInstancingVariants
    value: 0
    objectReference: {fileID: 0}
  - target: {fileID: 0}
    propertyPath: m_DoubleSidedGI
    value: 0
    objectReference: {fileID: 0}
  - target: {fileID: 0}
    propertyPath: m_CustomRenderQueue
    value: -1
    objectReference: {fileID: 0}
  - target: {fileID: 0}
    propertyPath: stringTagMap.Array.size
    value: 0
    objectReference: {fileID: 0}
  - target: {fileID: 0}
    propertyPath: disabledShaderPasses.Array.size
    value: 0
    objectReference: {fileID: 0}
  - target: {fileID: 0}
    propertyPath: m_SavedProperties.m_TexEnvs.Array.size
    value: 28
    objectReference: {fileID: 0}
  - target: {fileID: 0}
    propertyPath: m_SavedProperties.m_TexEnvs.Array.data[0].first
    value: _BumpMap
    objectReference: {fileID: 0}
  - target: {fileID: 0}
    propertyPath: m_SavedProperties.m_TexEnvs.Array.data[0].second.m_Texture
    value: 
    objectReference: {fileID: 2800000, guid: cce58ac2540df1343a7df05b41c19391, type: 3}
  - target: {fileID: 0}
    propertyPath: m_SavedProperties.m_TexEnvs.Array.data[0].second.m_Scale.x
    value: 1
    objectReference: {fileID: 0}
  - target: {fileID: 0}
    propertyPath: m_SavedProperties.m_TexEnvs.Array.data[0].second.m_Scale.y
    value: 1
    objectReference: {fileID: 0}
  - target: {fileID: 0}
    propertyPath: m_SavedProperties.m_TexEnvs.Array.data[0].second.m_Offset.x
    value: 0
    objectReference: {fileID: 0}
  - target: {fileID: 0}
    propertyPath: m_SavedProperties.m_TexEnvs.Array.data[0].second.m_Offset.y
    value: 0
    objectReference: {fileID: 0}
  - target: {fileID: 0}
    propertyPath: m_SavedProperties.m_TexEnvs.Array.data[1].first
    value: _BumpTex
    objectReference: {fileID: 0}
  - target: {fileID: 0}
    propertyPath: m_SavedProperties.m_TexEnvs.Array.data[1].second.m_Texture
    value: 
    objectReference: {fileID: 2800000, guid: cce58ac2540df1343a7df05b41c19391, type: 3}
  - target: {fileID: 0}
    propertyPath: m_SavedProperties.m_TexEnvs.Array.data[1].second.m_Scale.x
    value: 1
    objectReference: {fileID: 0}
  - target: {fileID: 0}
    propertyPath: m_SavedProperties.m_TexEnvs.Array.data[1].second.m_Scale.y
    value: 1
    objectReference: {fileID: 0}
  - target: {fileID: 0}
    propertyPath: m_SavedProperties.m_TexEnvs.Array.data[1].second.m_Offset.x
    value: 0
    objectReference: {fileID: 0}
  - target: {fileID: 0}
    propertyPath: m_SavedProperties.m_TexEnvs.Array.data[1].second.m_Offset.y
    value: 0
    objectReference: {fileID: 0}
  - target: {fileID: 0}
    propertyPath: m_SavedProperties.m_TexEnvs.Array.data[2].first
    value: _Control
    objectReference: {fileID: 0}
  - target: {fileID: 0}
    propertyPath: m_SavedProperties.m_TexEnvs.Array.data[2].second.m_Texture
    value: 
    objectReference: {fileID: 0}
  - target: {fileID: 0}
    propertyPath: m_SavedProperties.m_TexEnvs.Array.data[2].second.m_Scale.x
    value: 1
    objectReference: {fileID: 0}
  - target: {fileID: 0}
    propertyPath: m_SavedProperties.m_TexEnvs.Array.data[2].second.m_Scale.y
    value: 1
    objectReference: {fileID: 0}
  - target: {fileID: 0}
    propertyPath: m_SavedProperties.m_TexEnvs.Array.data[2].second.m_Offset.x
    value: 0
    objectReference: {fileID: 0}
  - target: {fileID: 0}
    propertyPath: m_SavedProperties.m_TexEnvs.Array.data[2].second.m_Offset.y
    value: 0
    objectReference: {fileID: 0}
  - target: {fileID: 0}
    propertyPath: m_SavedProperties.m_TexEnvs.Array.data[3].first
    value: _DetailAlbedoMap
    objectReference: {fileID: 0}
  - target: {fileID: 0}
    propertyPath: m_SavedProperties.m_TexEnvs.Array.data[3].second.m_Texture
    value: 
    objectReference: {fileID: 0}
  - target: {fileID: 0}
    propertyPath: m_SavedProperties.m_TexEnvs.Array.data[3].second.m_Scale.x
    value: 1
    objectReference: {fileID: 0}
  - target: {fileID: 0}
    propertyPath: m_SavedProperties.m_TexEnvs.Array.data[3].second.m_Scale.y
    value: 1
    objectReference: {fileID: 0}
  - target: {fileID: 0}
    propertyPath: m_SavedProperties.m_TexEnvs.Array.data[3].second.m_Offset.x
    value: 0
    objectReference: {fileID: 0}
  - target: {fileID: 0}
    propertyPath: m_SavedProperties.m_TexEnvs.Array.data[3].second.m_Offset.y
    value: 0
    objectReference: {fileID: 0}
  - target: {fileID: 0}
    propertyPath: m_SavedProperties.m_TexEnvs.Array.data[4].first
    value: _DetailMask
    objectReference: {fileID: 0}
  - target: {fileID: 0}
    propertyPath: m_SavedProperties.m_TexEnvs.Array.data[4].second.m_Texture
    value: 
    objectReference: {fileID: 0}
  - target: {fileID: 0}
    propertyPath: m_SavedProperties.m_TexEnvs.Array.data[4].second.m_Scale.x
    value: 1
    objectReference: {fileID: 0}
  - target: {fileID: 0}
    propertyPath: m_SavedProperties.m_TexEnvs.Array.data[4].second.m_Scale.y
    value: 1
    objectReference: {fileID: 0}
  - target: {fileID: 0}
    propertyPath: m_SavedProperties.m_TexEnvs.Array.data[4].second.m_Offset.x
    value: 0
    objectReference: {fileID: 0}
  - target: {fileID: 0}
    propertyPath: m_SavedProperties.m_TexEnvs.Array.data[4].second.m_Offset.y
    value: 0
    objectReference: {fileID: 0}
  - target: {fileID: 0}
    propertyPath: m_SavedProperties.m_TexEnvs.Array.data[5].first
    value: _DetailNormalMap
    objectReference: {fileID: 0}
  - target: {fileID: 0}
    propertyPath: m_SavedProperties.m_TexEnvs.Array.data[5].second.m_Texture
    value: 
    objectReference: {fileID: 0}
  - target: {fileID: 0}
    propertyPath: m_SavedProperties.m_TexEnvs.Array.data[5].second.m_Scale.x
    value: 1
    objectReference: {fileID: 0}
  - target: {fileID: 0}
    propertyPath: m_SavedProperties.m_TexEnvs.Array.data[5].second.m_Scale.y
    value: 1
    objectReference: {fileID: 0}
  - target: {fileID: 0}
    propertyPath: m_SavedProperties.m_TexEnvs.Array.data[5].second.m_Offset.x
    value: 0
    objectReference: {fileID: 0}
  - target: {fileID: 0}
    propertyPath: m_SavedProperties.m_TexEnvs.Array.data[5].second.m_Offset.y
    value: 0
    objectReference: {fileID: 0}
  - target: {fileID: 0}
    propertyPath: m_SavedProperties.m_TexEnvs.Array.data[6].first
    value: _DetailTex
    objectReference: {fileID: 0}
  - target: {fileID: 0}
    propertyPath: m_SavedProperties.m_TexEnvs.Array.data[6].second.m_Texture
    value: 
    objectReference: {fileID: 0}
  - target: {fileID: 0}
    propertyPath: m_SavedProperties.m_TexEnvs.Array.data[6].second.m_Scale.x
    value: 1
    objectReference: {fileID: 0}
  - target: {fileID: 0}
    propertyPath: m_SavedProperties.m_TexEnvs.Array.data[6].second.m_Scale.y
    value: 1
    objectReference: {fileID: 0}
  - target: {fileID: 0}
    propertyPath: m_SavedProperties.m_TexEnvs.Array.data[6].second.m_Offset.x
    value: 0
    objectReference: {fileID: 0}
  - target: {fileID: 0}
    propertyPath: m_SavedProperties.m_TexEnvs.Array.data[6].second.m_Offset.y
    value: 0
    objectReference: {fileID: 0}
  - target: {fileID: 0}
    propertyPath: m_SavedProperties.m_TexEnvs.Array.data[7].first
    value: _EmissionMap
    objectReference: {fileID: 0}
  - target: {fileID: 0}
    propertyPath: m_SavedProperties.m_TexEnvs.Array.data[7].second.m_Texture
    value: 
    objectReference: {fileID: 0}
  - target: {fileID: 0}
    propertyPath: m_SavedProperties.m_TexEnvs.Array.data[7].second.m_Scale.x
    value: 10.25
    objectReference: {fileID: 0}
  - target: {fileID: 0}
    propertyPath: m_SavedProperties.m_TexEnvs.Array.data[7].second.m_Scale.y
    value: 14.5
    objectReference: {fileID: 0}
  - target: {fileID: 0}
    propertyPath: m_SavedProperties.m_TexEnvs.Array.data[7].second.m_Offset.x
    value: 0
    objectReference: {fileID: 0}
  - target: {fileID: 0}
    propertyPath: m_SavedProperties.m_TexEnvs.Array.data[7].second.m_Offset.y
    value: 0
    objectReference: {fileID: 0}
  - target: {fileID: 0}
    propertyPath: m_SavedProperties.m_TexEnvs.Array.data[8].first
    value: _MainBump
    objectReference: {fileID: 0}
  - target: {fileID: 0}
    propertyPath: m_SavedProperties.m_TexEnvs.Array.data[8].second.m_Texture
    value: 
    objectReference: {fileID: 0}
  - target: {fileID: 0}
    propertyPath: m_SavedProperties.m_TexEnvs.Array.data[8].second.m_Scale.x
    value: 1
    objectReference: {fileID: 0}
  - target: {fileID: 0}
    propertyPath: m_SavedProperties.m_TexEnvs.Array.data[8].second.m_Scale.y
    value: 1
    objectReference: {fileID: 0}
  - target: {fileID: 0}
    propertyPath: m_SavedProperties.m_TexEnvs.Array.data[8].second.m_Offset.x
    value: 0
    objectReference: {fileID: 0}
  - target: {fileID: 0}
    propertyPath: m_SavedProperties.m_TexEnvs.Array.data[8].second.m_Offset.y
    value: 0
    objectReference: {fileID: 0}
  - target: {fileID: 0}
    propertyPath: m_SavedProperties.m_TexEnvs.Array.data[9].first
    value: _MainTex
    objectReference: {fileID: 0}
  - target: {fileID: 0}
    propertyPath: m_SavedProperties.m_TexEnvs.Array.data[9].second.m_Texture
    value: 
    objectReference: {fileID: 2800000, guid: e137f70a51035b747aa107e968ff84e9, type: 3}
  - target: {fileID: 0}
    propertyPath: m_SavedProperties.m_TexEnvs.Array.data[9].second.m_Scale.x
    value: 1
    objectReference: {fileID: 0}
  - target: {fileID: 0}
    propertyPath: m_SavedProperties.m_TexEnvs.Array.data[9].second.m_Scale.y
    value: 1
    objectReference: {fileID: 0}
  - target: {fileID: 0}
    propertyPath: m_SavedProperties.m_TexEnvs.Array.data[9].second.m_Offset.x
    value: 0
    objectReference: {fileID: 0}
  - target: {fileID: 0}
    propertyPath: m_SavedProperties.m_TexEnvs.Array.data[9].second.m_Offset.y
    value: 0
    objectReference: {fileID: 0}
  - target: {fileID: 0}
    propertyPath: m_SavedProperties.m_TexEnvs.Array.data[10].first
    value: _Mask
    objectReference: {fileID: 0}
  - target: {fileID: 0}
    propertyPath: m_SavedProperties.m_TexEnvs.Array.data[10].second.m_Texture
    value: 
    objectReference: {fileID: 0}
  - target: {fileID: 0}
    propertyPath: m_SavedProperties.m_TexEnvs.Array.data[10].second.m_Scale.x
    value: 1
    objectReference: {fileID: 0}
  - target: {fileID: 0}
    propertyPath: m_SavedProperties.m_TexEnvs.Array.data[10].second.m_Scale.y
    value: 1
    objectReference: {fileID: 0}
  - target: {fileID: 0}
    propertyPath: m_SavedProperties.m_TexEnvs.Array.data[10].second.m_Offset.x
    value: 0
    objectReference: {fileID: 0}
  - target: {fileID: 0}
    propertyPath: m_SavedProperties.m_TexEnvs.Array.data[10].second.m_Offset.y
    value: 0
    objectReference: {fileID: 0}
  - target: {fileID: 0}
    propertyPath: m_SavedProperties.m_TexEnvs.Array.data[11].first
    value: _MetallicGlossMap
    objectReference: {fileID: 0}
  - target: {fileID: 0}
    propertyPath: m_SavedProperties.m_TexEnvs.Array.data[11].second.m_Texture
    value: 
    objectReference: {fileID: 0}
  - target: {fileID: 0}
    propertyPath: m_SavedProperties.m_TexEnvs.Array.data[11].second.m_Scale.x
    value: 1
    objectReference: {fileID: 0}
  - target: {fileID: 0}
    propertyPath: m_SavedProperties.m_TexEnvs.Array.data[11].second.m_Scale.y
    value: 1
    objectReference: {fileID: 0}
  - target: {fileID: 0}
    propertyPath: m_SavedProperties.m_TexEnvs.Array.data[11].second.m_Offset.x
    value: 0
    objectReference: {fileID: 0}
  - target: {fileID: 0}
    propertyPath: m_SavedProperties.m_TexEnvs.Array.data[11].second.m_Offset.y
    value: 0
    objectReference: {fileID: 0}
  - target: {fileID: 0}
    propertyPath: m_SavedProperties.m_TexEnvs.Array.data[12].first
    value: _Normal0
    objectReference: {fileID: 0}
  - target: {fileID: 0}
    propertyPath: m_SavedProperties.m_TexEnvs.Array.data[12].second.m_Texture
    value: 
    objectReference: {fileID: 0}
  - target: {fileID: 0}
    propertyPath: m_SavedProperties.m_TexEnvs.Array.data[12].second.m_Scale.x
    value: 1
    objectReference: {fileID: 0}
  - target: {fileID: 0}
    propertyPath: m_SavedProperties.m_TexEnvs.Array.data[12].second.m_Scale.y
    value: 1
    objectReference: {fileID: 0}
  - target: {fileID: 0}
    propertyPath: m_SavedProperties.m_TexEnvs.Array.data[12].second.m_Offset.x
    value: 0
    objectReference: {fileID: 0}
  - target: {fileID: 0}
    propertyPath: m_SavedProperties.m_TexEnvs.Array.data[12].second.m_Offset.y
    value: 0
    objectReference: {fileID: 0}
  - target: {fileID: 0}
    propertyPath: m_SavedProperties.m_TexEnvs.Array.data[13].first
    value: _Normal1
    objectReference: {fileID: 0}
  - target: {fileID: 0}
    propertyPath: m_SavedProperties.m_TexEnvs.Array.data[13].second.m_Texture
    value: 
    objectReference: {fileID: 0}
  - target: {fileID: 0}
    propertyPath: m_SavedProperties.m_TexEnvs.Array.data[13].second.m_Scale.x
    value: 1
    objectReference: {fileID: 0}
  - target: {fileID: 0}
    propertyPath: m_SavedProperties.m_TexEnvs.Array.data[13].second.m_Scale.y
    value: 1
    objectReference: {fileID: 0}
  - target: {fileID: 0}
    propertyPath: m_SavedProperties.m_TexEnvs.Array.data[13].second.m_Offset.x
    value: 0
    objectReference: {fileID: 0}
  - target: {fileID: 0}
    propertyPath: m_SavedProperties.m_TexEnvs.Array.data[13].second.m_Offset.y
    value: 0
    objectReference: {fileID: 0}
  - target: {fileID: 0}
    propertyPath: m_SavedProperties.m_TexEnvs.Array.data[14].first
    value: _Normal2
    objectReference: {fileID: 0}
  - target: {fileID: 0}
    propertyPath: m_SavedProperties.m_TexEnvs.Array.data[14].second.m_Texture
    value: 
    objectReference: {fileID: 0}
  - target: {fileID: 0}
    propertyPath: m_SavedProperties.m_TexEnvs.Array.data[14].second.m_Scale.x
    value: 1
    objectReference: {fileID: 0}
  - target: {fileID: 0}
    propertyPath: m_SavedProperties.m_TexEnvs.Array.data[14].second.m_Scale.y
    value: 1
    objectReference: {fileID: 0}
  - target: {fileID: 0}
    propertyPath: m_SavedProperties.m_TexEnvs.Array.data[14].second.m_Offset.x
    value: 0
    objectReference: {fileID: 0}
  - target: {fileID: 0}
    propertyPath: m_SavedProperties.m_TexEnvs.Array.data[14].second.m_Offset.y
    value: 0
    objectReference: {fileID: 0}
  - target: {fileID: 0}
    propertyPath: m_SavedProperties.m_TexEnvs.Array.data[15].first
    value: _Normal3
    objectReference: {fileID: 0}
  - target: {fileID: 0}
    propertyPath: m_SavedProperties.m_TexEnvs.Array.data[15].second.m_Texture
    value: 
    objectReference: {fileID: 0}
  - target: {fileID: 0}
    propertyPath: m_SavedProperties.m_TexEnvs.Array.data[15].second.m_Scale.x
    value: 1
    objectReference: {fileID: 0}
  - target: {fileID: 0}
    propertyPath: m_SavedProperties.m_TexEnvs.Array.data[15].second.m_Scale.y
    value: 1
    objectReference: {fileID: 0}
  - target: {fileID: 0}
    propertyPath: m_SavedProperties.m_TexEnvs.Array.data[15].second.m_Offset.x
    value: 0
    objectReference: {fileID: 0}
  - target: {fileID: 0}
    propertyPath: m_SavedProperties.m_TexEnvs.Array.data[15].second.m_Offset.y
    value: 0
    objectReference: {fileID: 0}
  - target: {fileID: 0}
    propertyPath: m_SavedProperties.m_TexEnvs.Array.data[16].first
    value: _OcclusionMap
    objectReference: {fileID: 0}
  - target: {fileID: 0}
    propertyPath: m_SavedProperties.m_TexEnvs.Array.data[16].second.m_Texture
    value: 
    objectReference: {fileID: 0}
  - target: {fileID: 0}
    propertyPath: m_SavedProperties.m_TexEnvs.Array.data[16].second.m_Scale.x
    value: 1
    objectReference: {fileID: 0}
  - target: {fileID: 0}
    propertyPath: m_SavedProperties.m_TexEnvs.Array.data[16].second.m_Scale.y
    value: 1
    objectReference: {fileID: 0}
  - target: {fileID: 0}
    propertyPath: m_SavedProperties.m_TexEnvs.Array.data[16].second.m_Offset.x
    value: 0
    objectReference: {fileID: 0}
  - target: {fileID: 0}
    propertyPath: m_SavedProperties.m_TexEnvs.Array.data[16].second.m_Offset.y
    value: 0
    objectReference: {fileID: 0}
  - target: {fileID: 0}
    propertyPath: m_SavedProperties.m_TexEnvs.Array.data[17].first
    value: _ParallaxMap
    objectReference: {fileID: 0}
  - target: {fileID: 0}
    propertyPath: m_SavedProperties.m_TexEnvs.Array.data[17].second.m_Texture
    value: 
    objectReference: {fileID: 2800000, guid: a8c6cf0062ea62042b4fc023b0e7236e, type: 3}
  - target: {fileID: 0}
    propertyPath: m_SavedProperties.m_TexEnvs.Array.data[17].second.m_Scale.x
    value: 1
    objectReference: {fileID: 0}
  - target: {fileID: 0}
    propertyPath: m_SavedProperties.m_TexEnvs.Array.data[17].second.m_Scale.y
    value: 1
    objectReference: {fileID: 0}
  - target: {fileID: 0}
    propertyPath: m_SavedProperties.m_TexEnvs.Array.data[17].second.m_Offset.x
    value: 0
    objectReference: {fileID: 0}
  - target: {fileID: 0}
    propertyPath: m_SavedProperties.m_TexEnvs.Array.data[17].second.m_Offset.y
    value: 0
    objectReference: {fileID: 0}
  - target: {fileID: 0}
    propertyPath: m_SavedProperties.m_TexEnvs.Array.data[18].first
    value: _Ramp0
    objectReference: {fileID: 0}
  - target: {fileID: 0}
    propertyPath: m_SavedProperties.m_TexEnvs.Array.data[18].second.m_Texture
    value: 
    objectReference: {fileID: 0}
  - target: {fileID: 0}
    propertyPath: m_SavedProperties.m_TexEnvs.Array.data[18].second.m_Scale.x
    value: 1
    objectReference: {fileID: 0}
  - target: {fileID: 0}
    propertyPath: m_SavedProperties.m_TexEnvs.Array.data[18].second.m_Scale.y
    value: 1
    objectReference: {fileID: 0}
  - target: {fileID: 0}
    propertyPath: m_SavedProperties.m_TexEnvs.Array.data[18].second.m_Offset.x
    value: 0
    objectReference: {fileID: 0}
  - target: {fileID: 0}
    propertyPath: m_SavedProperties.m_TexEnvs.Array.data[18].second.m_Offset.y
    value: 0
    objectReference: {fileID: 0}
  - target: {fileID: 0}
    propertyPath: m_SavedProperties.m_TexEnvs.Array.data[19].first
    value: _Ramp1
    objectReference: {fileID: 0}
  - target: {fileID: 0}
    propertyPath: m_SavedProperties.m_TexEnvs.Array.data[19].second.m_Texture
    value: 
    objectReference: {fileID: 0}
  - target: {fileID: 0}
    propertyPath: m_SavedProperties.m_TexEnvs.Array.data[19].second.m_Scale.x
    value: 1
    objectReference: {fileID: 0}
  - target: {fileID: 0}
    propertyPath: m_SavedProperties.m_TexEnvs.Array.data[19].second.m_Scale.y
    value: 1
    objectReference: {fileID: 0}
  - target: {fileID: 0}
    propertyPath: m_SavedProperties.m_TexEnvs.Array.data[19].second.m_Offset.x
    value: 0
    objectReference: {fileID: 0}
  - target: {fileID: 0}
    propertyPath: m_SavedProperties.m_TexEnvs.Array.data[19].second.m_Offset.y
    value: 0
    objectReference: {fileID: 0}
  - target: {fileID: 0}
    propertyPath: m_SavedProperties.m_TexEnvs.Array.data[20].first
    value: _Ramp2
    objectReference: {fileID: 0}
  - target: {fileID: 0}
    propertyPath: m_SavedProperties.m_TexEnvs.Array.data[20].second.m_Texture
    value: 
    objectReference: {fileID: 0}
  - target: {fileID: 0}
    propertyPath: m_SavedProperties.m_TexEnvs.Array.data[20].second.m_Scale.x
    value: 1
    objectReference: {fileID: 0}
  - target: {fileID: 0}
    propertyPath: m_SavedProperties.m_TexEnvs.Array.data[20].second.m_Scale.y
    value: 1
    objectReference: {fileID: 0}
  - target: {fileID: 0}
    propertyPath: m_SavedProperties.m_TexEnvs.Array.data[20].second.m_Offset.x
    value: 0
    objectReference: {fileID: 0}
  - target: {fileID: 0}
    propertyPath: m_SavedProperties.m_TexEnvs.Array.data[20].second.m_Offset.y
    value: 0
    objectReference: {fileID: 0}
  - target: {fileID: 0}
    propertyPath: m_SavedProperties.m_TexEnvs.Array.data[21].first
    value: _SpecGlossMap
    objectReference: {fileID: 0}
  - target: {fileID: 0}
    propertyPath: m_SavedProperties.m_TexEnvs.Array.data[21].second.m_Texture
    value: 
    objectReference: {fileID: 0}
  - target: {fileID: 0}
    propertyPath: m_SavedProperties.m_TexEnvs.Array.data[21].second.m_Scale.x
    value: 1
    objectReference: {fileID: 0}
  - target: {fileID: 0}
    propertyPath: m_SavedProperties.m_TexEnvs.Array.data[21].second.m_Scale.y
    value: 1
    objectReference: {fileID: 0}
  - target: {fileID: 0}
    propertyPath: m_SavedProperties.m_TexEnvs.Array.data[21].second.m_Offset.x
    value: 0
    objectReference: {fileID: 0}
  - target: {fileID: 0}
    propertyPath: m_SavedProperties.m_TexEnvs.Array.data[21].second.m_Offset.y
    value: 0
    objectReference: {fileID: 0}
  - target: {fileID: 0}
    propertyPath: m_SavedProperties.m_TexEnvs.Array.data[22].first
    value: _SpecularMap
    objectReference: {fileID: 0}
  - target: {fileID: 0}
    propertyPath: m_SavedProperties.m_TexEnvs.Array.data[22].second.m_Texture
    value: 
    objectReference: {fileID: 2800000, guid: a8c6cf0062ea62042b4fc023b0e7236e, type: 3}
  - target: {fileID: 0}
    propertyPath: m_SavedProperties.m_TexEnvs.Array.data[22].second.m_Scale.x
    value: 1
    objectReference: {fileID: 0}
  - target: {fileID: 0}
    propertyPath: m_SavedProperties.m_TexEnvs.Array.data[22].second.m_Scale.y
    value: 1
    objectReference: {fileID: 0}
  - target: {fileID: 0}
    propertyPath: m_SavedProperties.m_TexEnvs.Array.data[22].second.m_Offset.x
    value: 0
    objectReference: {fileID: 0}
  - target: {fileID: 0}
    propertyPath: m_SavedProperties.m_TexEnvs.Array.data[22].second.m_Offset.y
    value: 0
    objectReference: {fileID: 0}
  - target: {fileID: 0}
    propertyPath: m_SavedProperties.m_TexEnvs.Array.data[23].first
    value: _Splat0
    objectReference: {fileID: 0}
  - target: {fileID: 0}
    propertyPath: m_SavedProperties.m_TexEnvs.Array.data[23].second.m_Texture
    value: 
    objectReference: {fileID: 0}
  - target: {fileID: 0}
    propertyPath: m_SavedProperties.m_TexEnvs.Array.data[23].second.m_Scale.x
    value: 1
    objectReference: {fileID: 0}
  - target: {fileID: 0}
    propertyPath: m_SavedProperties.m_TexEnvs.Array.data[23].second.m_Scale.y
    value: 1
    objectReference: {fileID: 0}
  - target: {fileID: 0}
    propertyPath: m_SavedProperties.m_TexEnvs.Array.data[23].second.m_Offset.x
    value: 0
    objectReference: {fileID: 0}
  - target: {fileID: 0}
    propertyPath: m_SavedProperties.m_TexEnvs.Array.data[23].second.m_Offset.y
    value: 0
    objectReference: {fileID: 0}
  - target: {fileID: 0}
    propertyPath: m_SavedProperties.m_TexEnvs.Array.data[24].first
    value: _Splat1
    objectReference: {fileID: 0}
  - target: {fileID: 0}
    propertyPath: m_SavedProperties.m_TexEnvs.Array.data[24].second.m_Texture
    value: 
    objectReference: {fileID: 0}
  - target: {fileID: 0}
    propertyPath: m_SavedProperties.m_TexEnvs.Array.data[24].second.m_Scale.x
    value: 1
    objectReference: {fileID: 0}
  - target: {fileID: 0}
    propertyPath: m_SavedProperties.m_TexEnvs.Array.data[24].second.m_Scale.y
    value: 1
    objectReference: {fileID: 0}
  - target: {fileID: 0}
    propertyPath: m_SavedProperties.m_TexEnvs.Array.data[24].second.m_Offset.x
    value: 0
    objectReference: {fileID: 0}
  - target: {fileID: 0}
    propertyPath: m_SavedProperties.m_TexEnvs.Array.data[24].second.m_Offset.y
    value: 0
    objectReference: {fileID: 0}
  - target: {fileID: 0}
    propertyPath: m_SavedProperties.m_TexEnvs.Array.data[25].first
    value: _Splat2
    objectReference: {fileID: 0}
  - target: {fileID: 0}
    propertyPath: m_SavedProperties.m_TexEnvs.Array.data[25].second.m_Texture
    value: 
    objectReference: {fileID: 0}
  - target: {fileID: 0}
    propertyPath: m_SavedProperties.m_TexEnvs.Array.data[25].second.m_Scale.x
    value: 1
    objectReference: {fileID: 0}
  - target: {fileID: 0}
    propertyPath: m_SavedProperties.m_TexEnvs.Array.data[25].second.m_Scale.y
    value: 1
    objectReference: {fileID: 0}
  - target: {fileID: 0}
    propertyPath: m_SavedProperties.m_TexEnvs.Array.data[25].second.m_Offset.x
    value: 0
    objectReference: {fileID: 0}
  - target: {fileID: 0}
    propertyPath: m_SavedProperties.m_TexEnvs.Array.data[25].second.m_Offset.y
    value: 0
    objectReference: {fileID: 0}
  - target: {fileID: 0}
    propertyPath: m_SavedProperties.m_TexEnvs.Array.data[26].first
    value: _Splat3
    objectReference: {fileID: 0}
  - target: {fileID: 0}
    propertyPath: m_SavedProperties.m_TexEnvs.Array.data[26].second.m_Texture
    value: 
    objectReference: {fileID: 0}
  - target: {fileID: 0}
    propertyPath: m_SavedProperties.m_TexEnvs.Array.data[26].second.m_Scale.x
    value: 1
    objectReference: {fileID: 0}
  - target: {fileID: 0}
    propertyPath: m_SavedProperties.m_TexEnvs.Array.data[26].second.m_Scale.y
    value: 1
    objectReference: {fileID: 0}
  - target: {fileID: 0}
    propertyPath: m_SavedProperties.m_TexEnvs.Array.data[26].second.m_Offset.x
    value: 0
    objectReference: {fileID: 0}
  - target: {fileID: 0}
    propertyPath: m_SavedProperties.m_TexEnvs.Array.data[26].second.m_Offset.y
    value: 0
    objectReference: {fileID: 0}
  - target: {fileID: 0}
    propertyPath: m_SavedProperties.m_TexEnvs.Array.data[27].first
    value: _Tex
    objectReference: {fileID: 0}
  - target: {fileID: 0}
    propertyPath: m_SavedProperties.m_TexEnvs.Array.data[27].second.m_Texture
    value: 
    objectReference: {fileID: 0}
  - target: {fileID: 0}
    propertyPath: m_SavedProperties.m_TexEnvs.Array.data[27].second.m_Scale.x
    value: 1
    objectReference: {fileID: 0}
  - target: {fileID: 0}
    propertyPath: m_SavedProperties.m_TexEnvs.Array.data[27].second.m_Scale.y
    value: 1
    objectReference: {fileID: 0}
  - target: {fileID: 0}
    propertyPath: m_SavedProperties.m_TexEnvs.Array.data[27].second.m_Offset.x
    value: 0
    objectReference: {fileID: 0}
  - target: {fileID: 0}
    propertyPath: m_SavedProperties.m_TexEnvs.Array.data[27].second.m_Offset.y
    value: 0
    objectReference: {fileID: 0}
  - target: {fileID: 0}
    propertyPath: m_SavedProperties.m_Floats.Array.size
    value: 66
    objectReference: {fileID: 0}
  - target: {fileID: 0}
    propertyPath: m_SavedProperties.m_Floats.Array.data[0].first
    value: _BlendOp
    objectReference: {fileID: 0}
  - target: {fileID: 0}
    propertyPath: m_SavedProperties.m_Floats.Array.data[0].second
    value: 0
    objectReference: {fileID: 0}
  - target: {fileID: 0}
    propertyPath: m_SavedProperties.m_Floats.Array.data[1].first
    value: _BumpScale
    objectReference: {fileID: 0}
  - target: {fileID: 0}
    propertyPath: m_SavedProperties.m_Floats.Array.data[1].second
    value: 1
    objectReference: {fileID: 0}
  - target: {fileID: 0}
    propertyPath: m_SavedProperties.m_Floats.Array.data[2].first
    value: _CameraFadingEnabled
    objectReference: {fileID: 0}
  - target: {fileID: 0}
    propertyPath: m_SavedProperties.m_Floats.Array.data[2].second
    value: 0
    objectReference: {fileID: 0}
  - target: {fileID: 0}
    propertyPath: m_SavedProperties.m_Floats.Array.data[3].first
    value: _CameraFarFadeDistance
    objectReference: {fileID: 0}
  - target: {fileID: 0}
    propertyPath: m_SavedProperties.m_Floats.Array.data[3].second
    value: 2
    objectReference: {fileID: 0}
  - target: {fileID: 0}
    propertyPath: m_SavedProperties.m_Floats.Array.data[4].first
    value: _CameraNearFadeDistance
    objectReference: {fileID: 0}
  - target: {fileID: 0}
    propertyPath: m_SavedProperties.m_Floats.Array.data[4].second
    value: 1
    objectReference: {fileID: 0}
  - target: {fileID: 0}
    propertyPath: m_SavedProperties.m_Floats.Array.data[5].first
    value: _ColorMask
    objectReference: {fileID: 0}
  - target: {fileID: 0}
    propertyPath: m_SavedProperties.m_Floats.Array.data[5].second
    value: 15
    objectReference: {fileID: 0}
  - target: {fileID: 0}
    propertyPath: m_SavedProperties.m_Floats.Array.data[6].first
    value: _ColorMode
    objectReference: {fileID: 0}
  - target: {fileID: 0}
    propertyPath: m_SavedProperties.m_Floats.Array.data[6].second
    value: 0
    objectReference: {fileID: 0}
  - target: {fileID: 0}
    propertyPath: m_SavedProperties.m_Floats.Array.data[7].first
    value: _Cull
    objectReference: {fileID: 0}
  - target: {fileID: 0}
    propertyPath: m_SavedProperties.m_Floats.Array.data[7].second
    value: 2
    objectReference: {fileID: 0}
  - target: {fileID: 0}
    propertyPath: m_SavedProperties.m_Floats.Array.data[8].first
    value: _Cutoff
    objectReference: {fileID: 0}
  - target: {fileID: 0}
    propertyPath: m_SavedProperties.m_Floats.Array.data[8].second
    value: 0.5
    objectReference: {fileID: 0}
  - target: {fileID: 0}
    propertyPath: m_SavedProperties.m_Floats.Array.data[9].first
    value: _Darken
    objectReference: {fileID: 0}
  - target: {fileID: 0}
    propertyPath: m_SavedProperties.m_Floats.Array.data[9].second
    value: 0.464
    objectReference: {fileID: 0}
  - target: {fileID: 0}
    propertyPath: m_SavedProperties.m_Floats.Array.data[10].first
    value: _DetailNormalMapScale
    objectReference: {fileID: 0}
  - target: {fileID: 0}
    propertyPath: m_SavedProperties.m_Floats.Array.data[10].second
    value: 1
    objectReference: {fileID: 0}
  - target: {fileID: 0}
    propertyPath: m_SavedProperties.m_Floats.Array.data[11].first
    value: _Direction
    objectReference: {fileID: 0}
  - target: {fileID: 0}
    propertyPath: m_SavedProperties.m_Floats.Array.data[11].second
    value: 2
    objectReference: {fileID: 0}
  - target: {fileID: 0}
    propertyPath: m_SavedProperties.m_Floats.Array.data[12].first
    value: _DistortionBlend
    objectReference: {fileID: 0}
  - target: {fileID: 0}
    propertyPath: m_SavedProperties.m_Floats.Array.data[12].second
    value: 0.5
    objectReference: {fileID: 0}
  - target: {fileID: 0}
    propertyPath: m_SavedProperties.m_Floats.Array.data[13].first
    value: _DistortionEnabled
    objectReference: {fileID: 0}
  - target: {fileID: 0}
    propertyPath: m_SavedProperties.m_Floats.Array.data[13].second
    value: 0
    objectReference: {fileID: 0}
  - target: {fileID: 0}
    propertyPath: m_SavedProperties.m_Floats.Array.data[14].first
    value: _DistortionStrength
    objectReference: {fileID: 0}
  - target: {fileID: 0}
    propertyPath: m_SavedProperties.m_Floats.Array.data[14].second
    value: 1
    objectReference: {fileID: 0}
  - target: {fileID: 0}
    propertyPath: m_SavedProperties.m_Floats.Array.data[15].first
    value: _DistortionStrengthScaled
    objectReference: {fileID: 0}
  - target: {fileID: 0}
    propertyPath: m_SavedProperties.m_Floats.Array.data[15].second
    value: 0.1
    objectReference: {fileID: 0}
  - target: {fileID: 0}
    propertyPath: m_SavedProperties.m_Floats.Array.data[16].first
    value: _DstBlend
    objectReference: {fileID: 0}
  - target: {fileID: 0}
    propertyPath: m_SavedProperties.m_Floats.Array.data[16].second
    value: 0
    objectReference: {fileID: 0}
  - target: {fileID: 0}
    propertyPath: m_SavedProperties.m_Floats.Array.data[17].first
    value: _EmissionEnabled
    objectReference: {fileID: 0}
  - target: {fileID: 0}
    propertyPath: m_SavedProperties.m_Floats.Array.data[17].second
    value: 0
    objectReference: {fileID: 0}
  - target: {fileID: 0}
    propertyPath: m_SavedProperties.m_Floats.Array.data[18].first
    value: _Exposure
    objectReference: {fileID: 0}
  - target: {fileID: 0}
    propertyPath: m_SavedProperties.m_Floats.Array.data[18].second
    value: 1
    objectReference: {fileID: 0}
  - target: {fileID: 0}
    propertyPath: m_SavedProperties.m_Floats.Array.data[19].first
    value: _FlipbookMode
    objectReference: {fileID: 0}
  - target: {fileID: 0}
    propertyPath: m_SavedProperties.m_Floats.Array.data[19].second
    value: 1
    objectReference: {fileID: 0}
  - target: {fileID: 0}
    propertyPath: m_SavedProperties.m_Floats.Array.data[20].first
    value: _Focus
    objectReference: {fileID: 0}
  - target: {fileID: 0}
    propertyPath: m_SavedProperties.m_Floats.Array.data[20].second
    value: -100
    objectReference: {fileID: 0}
  - target: {fileID: 0}
    propertyPath: m_SavedProperties.m_Floats.Array.data[21].first
    value: _GlossMapScale
    objectReference: {fileID: 0}
  - target: {fileID: 0}
    propertyPath: m_SavedProperties.m_Floats.Array.data[21].second
    value: 1
    objectReference: {fileID: 0}
  - target: {fileID: 0}
    propertyPath: m_SavedProperties.m_Floats.Array.data[22].first
    value: _Glossiness
    objectReference: {fileID: 0}
  - target: {fileID: 0}
    propertyPath: m_SavedProperties.m_Floats.Array.data[22].second
    value: 0.886
    objectReference: {fileID: 0}
  - target: {fileID: 0}
    propertyPath: m_SavedProperties.m_Floats.Array.data[23].first
    value: _GlossyReflections
    objectReference: {fileID: 0}
  - target: {fileID: 0}
    propertyPath: m_SavedProperties.m_Floats.Array.data[23].second
    value: 1
    objectReference: {fileID: 0}
  - target: {fileID: 0}
    propertyPath: m_SavedProperties.m_Floats.Array.data[24].first
    value: _InvFade
    objectReference: {fileID: 0}
  - target: {fileID: 0}
    propertyPath: m_SavedProperties.m_Floats.Array.data[24].second
    value: 1
    objectReference: {fileID: 0}
  - target: {fileID: 0}
    propertyPath: m_SavedProperties.m_Floats.Array.data[25].first
    value: _LightingEnabled
    objectReference: {fileID: 0}
  - target: {fileID: 0}
    propertyPath: m_SavedProperties.m_Floats.Array.data[25].second
    value: 0
    objectReference: {fileID: 0}
  - target: {fileID: 0}
    propertyPath: m_SavedProperties.m_Floats.Array.data[26].first
    value: _Metallic
    objectReference: {fileID: 0}
  - target: {fileID: 0}
    propertyPath: m_SavedProperties.m_Floats.Array.data[26].second
    value: 1
    objectReference: {fileID: 0}
  - target: {fileID: 0}
    propertyPath: m_SavedProperties.m_Floats.Array.data[27].first
    value: _Metallic0
    objectReference: {fileID: 0}
  - target: {fileID: 0}
    propertyPath: m_SavedProperties.m_Floats.Array.data[27].second
    value: 0
    objectReference: {fileID: 0}
  - target: {fileID: 0}
    propertyPath: m_SavedProperties.m_Floats.Array.data[28].first
    value: _Metallic1
    objectReference: {fileID: 0}
  - target: {fileID: 0}
    propertyPath: m_SavedProperties.m_Floats.Array.data[28].second
    value: 0
    objectReference: {fileID: 0}
  - target: {fileID: 0}
    propertyPath: m_SavedProperties.m_Floats.Array.data[29].first
    value: _Metallic2
    objectReference: {fileID: 0}
  - target: {fileID: 0}
    propertyPath: m_SavedProperties.m_Floats.Array.data[29].second
    value: 0
    objectReference: {fileID: 0}
  - target: {fileID: 0}
    propertyPath: m_SavedProperties.m_Floats.Array.data[30].first
    value: _Metallic3
    objectReference: {fileID: 0}
  - target: {fileID: 0}
    propertyPath: m_SavedProperties.m_Floats.Array.data[30].second
    value: 0
    objectReference: {fileID: 0}
  - target: {fileID: 0}
    propertyPath: m_SavedProperties.m_Floats.Array.data[31].first
    value: _Mode
    objectReference: {fileID: 0}
  - target: {fileID: 0}
    propertyPath: m_SavedProperties.m_Floats.Array.data[31].second
    value: 0
    objectReference: {fileID: 0}
  - target: {fileID: 0}
    propertyPath: m_SavedProperties.m_Floats.Array.data[32].first
    value: _MyRange
    objectReference: {fileID: 0}
  - target: {fileID: 0}
    propertyPath: m_SavedProperties.m_Floats.Array.data[32].second
    value: 1
    objectReference: {fileID: 0}
  - target: {fileID: 0}
    propertyPath: m_SavedProperties.m_Floats.Array.data[33].first
    value: _OcclusionStrength
    objectReference: {fileID: 0}
  - target: {fileID: 0}
    propertyPath: m_SavedProperties.m_Floats.Array.data[33].second
    value: 1
    objectReference: {fileID: 0}
  - target: {fileID: 0}
    propertyPath: m_SavedProperties.m_Floats.Array.data[34].first
    value: _Parallax
    objectReference: {fileID: 0}
  - target: {fileID: 0}
    propertyPath: m_SavedProperties.m_Floats.Array.data[34].second
    value: 0.061
    objectReference: {fileID: 0}
  - target: {fileID: 0}
    propertyPath: m_SavedProperties.m_Floats.Array.data[35].first
    value: _Phi0
    objectReference: {fileID: 0}
  - target: {fileID: 0}
    propertyPath: m_SavedProperties.m_Floats.Array.data[35].second
    value: 0
    objectReference: {fileID: 0}
  - target: {fileID: 0}
    propertyPath: m_SavedProperties.m_Floats.Array.data[36].first
    value: _Phi1
    objectReference: {fileID: 0}
  - target: {fileID: 0}
    propertyPath: m_SavedProperties.m_Floats.Array.data[36].second
    value: 1
    objectReference: {fileID: 0}
  - target: {fileID: 0}
    propertyPath: m_SavedProperties.m_Floats.Array.data[37].first
    value: _Rotation
    objectReference: {fileID: 0}
  - target: {fileID: 0}
    propertyPath: m_SavedProperties.m_Floats.Array.data[37].second
    value: 0
    objectReference: {fileID: 0}
  - target: {fileID: 0}
    propertyPath: m_SavedProperties.m_Floats.Array.data[38].first
    value: _SeeThru
    objectReference: {fileID: 0}
  - target: {fileID: 0}
    propertyPath: m_SavedProperties.m_Floats.Array.data[38].second
    value: 0
    objectReference: {fileID: 0}
  - target: {fileID: 0}
    propertyPath: m_SavedProperties.m_Floats.Array.data[39].first
    value: _Shininess
    objectReference: {fileID: 0}
  - target: {fileID: 0}
    propertyPath: m_SavedProperties.m_Floats.Array.data[39].second
    value: 0.057
    objectReference: {fileID: 0}
  - target: {fileID: 0}
    propertyPath: m_SavedProperties.m_Floats.Array.data[40].first
    value: _Smoothness0
    objectReference: {fileID: 0}
  - target: {fileID: 0}
    propertyPath: m_SavedProperties.m_Floats.Array.data[40].second
    value: 1
    objectReference: {fileID: 0}
  - target: {fileID: 0}
    propertyPath: m_SavedProperties.m_Floats.Array.data[41].first
    value: _Smoothness1
    objectReference: {fileID: 0}
  - target: {fileID: 0}
    propertyPath: m_SavedProperties.m_Floats.Array.data[41].second
    value: 1
    objectReference: {fileID: 0}
  - target: {fileID: 0}
    propertyPath: m_SavedProperties.m_Floats.Array.data[42].first
    value: _Smoothness2
    objectReference: {fileID: 0}
  - target: {fileID: 0}
    propertyPath: m_SavedProperties.m_Floats.Array.data[42].second
    value: 1
    objectReference: {fileID: 0}
  - target: {fileID: 0}
    propertyPath: m_SavedProperties.m_Floats.Array.data[43].first
    value: _Smoothness3
    objectReference: {fileID: 0}
  - target: {fileID: 0}
    propertyPath: m_SavedProperties.m_Floats.Array.data[43].second
    value: 1
    objectReference: {fileID: 0}
  - target: {fileID: 0}
    propertyPath: m_SavedProperties.m_Floats.Array.data[44].first
    value: _SmoothnessTextureChannel
    objectReference: {fileID: 0}
  - target: {fileID: 0}
    propertyPath: m_SavedProperties.m_Floats.Array.data[44].second
    value: 0
    objectReference: {fileID: 0}
  - target: {fileID: 0}
    propertyPath: m_SavedProperties.m_Floats.Array.data[45].first
    value: _SoftParticlesEnabled
    objectReference: {fileID: 0}
  - target: {fileID: 0}
    propertyPath: m_SavedProperties.m_Floats.Array.data[45].second
    value: 0
    objectReference: {fileID: 0}
  - target: {fileID: 0}
    propertyPath: m_SavedProperties.m_Floats.Array.data[46].first
    value: _SoftParticlesFarFadeDistance
    objectReference: {fileID: 0}
  - target: {fileID: 0}
    propertyPath: m_SavedProperties.m_Floats.Array.data[46].second
    value: 1
    objectReference: {fileID: 0}
  - target: {fileID: 0}
    propertyPath: m_SavedProperties.m_Floats.Array.data[47].first
    value: _SoftParticlesNearFadeDistance
    objectReference: {fileID: 0}
  - target: {fileID: 0}
    propertyPath: m_SavedProperties.m_Floats.Array.data[47].second
    value: 0
    objectReference: {fileID: 0}
  - target: {fileID: 0}
    propertyPath: m_SavedProperties.m_Floats.Array.data[48].first
    value: _SpecularHighlights
    objectReference: {fileID: 0}
  - target: {fileID: 0}
    propertyPath: m_SavedProperties.m_Floats.Array.data[48].second
    value: 1
    objectReference: {fileID: 0}
  - target: {fileID: 0}
    propertyPath: m_SavedProperties.m_Floats.Array.data[49].first
    value: _SrcBlend
    objectReference: {fileID: 0}
  - target: {fileID: 0}
    propertyPath: m_SavedProperties.m_Floats.Array.data[49].second
    value: 1
    objectReference: {fileID: 0}
  - target: {fileID: 0}
    propertyPath: m_SavedProperties.m_Floats.Array.data[50].first
    value: _Stencil
    objectReference: {fileID: 0}
  - target: {fileID: 0}
    propertyPath: m_SavedProperties.m_Floats.Array.data[50].second
    value: 0
    objectReference: {fileID: 0}
  - target: {fileID: 0}
    propertyPath: m_SavedProperties.m_Floats.Array.data[51].first
    value: _StencilComp
    objectReference: {fileID: 0}
  - target: {fileID: 0}
    propertyPath: m_SavedProperties.m_Floats.Array.data[51].second
    value: 8
    objectReference: {fileID: 0}
  - target: {fileID: 0}
    propertyPath: m_SavedProperties.m_Floats.Array.data[52].first
    value: _StencilOp
    objectReference: {fileID: 0}
  - target: {fileID: 0}
    propertyPath: m_SavedProperties.m_Floats.Array.data[52].second
    value: 0
    objectReference: {fileID: 0}
  - target: {fileID: 0}
    propertyPath: m_SavedProperties.m_Floats.Array.data[53].first
    value: _StencilReadMask
    objectReference: {fileID: 0}
  - target: {fileID: 0}
    propertyPath: m_SavedProperties.m_Floats.Array.data[53].second
    value: 255
    objectReference: {fileID: 0}
  - target: {fileID: 0}
    propertyPath: m_SavedProperties.m_Floats.Array.data[54].first
    value: _StencilWriteMask
    objectReference: {fileID: 0}
  - target: {fileID: 0}
    propertyPath: m_SavedProperties.m_Floats.Array.data[54].second
    value: 255
    objectReference: {fileID: 0}
  - target: {fileID: 0}
    propertyPath: m_SavedProperties.m_Floats.Array.data[55].first
    value: _Theta0
    objectReference: {fileID: 0}
  - target: {fileID: 0}
    propertyPath: m_SavedProperties.m_Floats.Array.data[55].second
    value: 0
    objectReference: {fileID: 0}
  - target: {fileID: 0}
    propertyPath: m_SavedProperties.m_Floats.Array.data[56].first
    value: _Theta1
    objectReference: {fileID: 0}
  - target: {fileID: 0}
    propertyPath: m_SavedProperties.m_Floats.Array.data[56].second
    value: 1
    objectReference: {fileID: 0}
  - target: {fileID: 0}
    propertyPath: m_SavedProperties.m_Floats.Array.data[57].first
    value: _UScale
    objectReference: {fileID: 0}
  - target: {fileID: 0}
    propertyPath: m_SavedProperties.m_Floats.Array.data[57].second
    value: 1
    objectReference: {fileID: 0}
  - target: {fileID: 0}
    propertyPath: m_SavedProperties.m_Floats.Array.data[58].first
    value: _UVSec
    objectReference: {fileID: 0}
  - target: {fileID: 0}
    propertyPath: m_SavedProperties.m_Floats.Array.data[58].second
    value: 0
    objectReference: {fileID: 0}
  - target: {fileID: 0}
    propertyPath: m_SavedProperties.m_Floats.Array.data[59].first
    value: _UseUIAlphaClip
    objectReference: {fileID: 0}
  - target: {fileID: 0}
    propertyPath: m_SavedProperties.m_Floats.Array.data[59].second
    value: 0
    objectReference: {fileID: 0}
  - target: {fileID: 0}
    propertyPath: m_SavedProperties.m_Floats.Array.data[60].first
    value: _VScale
    objectReference: {fileID: 0}
  - target: {fileID: 0}
    propertyPath: m_SavedProperties.m_Floats.Array.data[60].second
    value: 1
    objectReference: {fileID: 0}
  - target: {fileID: 0}
    propertyPath: m_SavedProperties.m_Floats.Array.data[61].first
    value: _WindQuality
    objectReference: {fileID: 0}
  - target: {fileID: 0}
    propertyPath: m_SavedProperties.m_Floats.Array.data[61].second
    value: 0
    objectReference: {fileID: 0}
  - target: {fileID: 0}
    propertyPath: m_SavedProperties.m_Floats.Array.data[62].first
    value: _WireThickness
    objectReference: {fileID: 0}
  - target: {fileID: 0}
    propertyPath: m_SavedProperties.m_Floats.Array.data[62].second
    value: 286
    objectReference: {fileID: 0}
  - target: {fileID: 0}
    propertyPath: m_SavedProperties.m_Floats.Array.data[63].first
    value: _ZWrite
    objectReference: {fileID: 0}
  - target: {fileID: 0}
    propertyPath: m_SavedProperties.m_Floats.Array.data[63].second
    value: 1
    objectReference: {fileID: 0}
  - target: {fileID: 0}
    propertyPath: m_SavedProperties.m_Floats.Array.data[64].first
    value: g_flCornerAdjust
    objectReference: {fileID: 0}
  - target: {fileID: 0}
    propertyPath: m_SavedProperties.m_Floats.Array.data[64].second
    value: 0.59
    objectReference: {fileID: 0}
  - target: {fileID: 0}
    propertyPath: m_SavedProperties.m_Floats.Array.data[65].first
    value: g_flOutlineWidth
    objectReference: {fileID: 0}
  - target: {fileID: 0}
    propertyPath: m_SavedProperties.m_Floats.Array.data[65].second
    value: 0.0031
    objectReference: {fileID: 0}
  - target: {fileID: 0}
    propertyPath: m_SavedProperties.m_Colors.Array.size
    value: 21
    objectReference: {fileID: 0}
  - target: {fileID: 0}
    propertyPath: m_SavedProperties.m_Colors.Array.data[0].first
    value: _CameraFadeParams
    objectReference: {fileID: 0}
  - target: {fileID: 0}
    propertyPath: m_SavedProperties.m_Colors.Array.data[0].second.r
    value: 0
    objectReference: {fileID: 0}
  - target: {fileID: 0}
    propertyPath: m_SavedProperties.m_Colors.Array.data[0].second.g
    value: Infinity
    objectReference: {fileID: 0}
  - target: {fileID: 0}
    propertyPath: m_SavedProperties.m_Colors.Array.data[0].second.b
    value: 0
    objectReference: {fileID: 0}
  - target: {fileID: 0}
    propertyPath: m_SavedProperties.m_Colors.Array.data[0].second.a
    value: 0
    objectReference: {fileID: 0}
  - target: {fileID: 0}
    propertyPath: m_SavedProperties.m_Colors.Array.data[1].first
    value: _Color
    objectReference: {fileID: 0}
  - target: {fileID: 0}
    propertyPath: m_SavedProperties.m_Colors.Array.data[1].second.r
    value: 0
    objectReference: {fileID: 0}
  - target: {fileID: 0}
    propertyPath: m_SavedProperties.m_Colors.Array.data[1].second.g
    value: 0.16981131
    objectReference: {fileID: 0}
  - target: {fileID: 0}
    propertyPath: m_SavedProperties.m_Colors.Array.data[1].second.b
    value: 0.0061772587
    objectReference: {fileID: 0}
  - target: {fileID: 0}
    propertyPath: m_SavedProperties.m_Colors.Array.data[1].second.a
    value: 1
    objectReference: {fileID: 0}
  - target: {fileID: 0}
    propertyPath: m_SavedProperties.m_Colors.Array.data[2].first
    value: _ColorAddSubDiff
    objectReference: {fileID: 0}
  - target: {fileID: 0}
    propertyPath: m_SavedProperties.m_Colors.Array.data[2].second.r
    value: 0
    objectReference: {fileID: 0}
  - target: {fileID: 0}
    propertyPath: m_SavedProperties.m_Colors.Array.data[2].second.g
    value: 0
    objectReference: {fileID: 0}
  - target: {fileID: 0}
    propertyPath: m_SavedProperties.m_Colors.Array.data[2].second.b
    value: 0
    objectReference: {fileID: 0}
  - target: {fileID: 0}
    propertyPath: m_SavedProperties.m_Colors.Array.data[2].second.a
    value: 0
    objectReference: {fileID: 0}
  - target: {fileID: 0}
    propertyPath: m_SavedProperties.m_Colors.Array.data[3].first
    value: _EmisColor
    objectReference: {fileID: 0}
  - target: {fileID: 0}
    propertyPath: m_SavedProperties.m_Colors.Array.data[3].second.r
    value: 0.29488006
    objectReference: {fileID: 0}
  - target: {fileID: 0}
    propertyPath: m_SavedProperties.m_Colors.Array.data[3].second.g
    value: 0
    objectReference: {fileID: 0}
  - target: {fileID: 0}
    propertyPath: m_SavedProperties.m_Colors.Array.data[3].second.b
    value: 0.41509432
    objectReference: {fileID: 0}
  - target: {fileID: 0}
    propertyPath: m_SavedProperties.m_Colors.Array.data[3].second.a
    value: 0
    objectReference: {fileID: 0}
  - target: {fileID: 0}
    propertyPath: m_SavedProperties.m_Colors.Array.data[4].first
    value: _EmissionColor
    objectReference: {fileID: 0}
  - target: {fileID: 0}
    propertyPath: m_SavedProperties.m_Colors.Array.data[4].second.r
    value: 0
    objectReference: {fileID: 0}
  - target: {fileID: 0}
    propertyPath: m_SavedProperties.m_Colors.Array.data[4].second.g
    value: 0
    objectReference: {fileID: 0}
  - target: {fileID: 0}
    propertyPath: m_SavedProperties.m_Colors.Array.data[4].second.b
    value: 0
    objectReference: {fileID: 0}
  - target: {fileID: 0}
    propertyPath: m_SavedProperties.m_Colors.Array.data[4].second.a
    value: 1
    objectReference: {fileID: 0}
  - target: {fileID: 0}
    propertyPath: m_SavedProperties.m_Colors.Array.data[5].first
    value: _HighLightColor
    objectReference: {fileID: 0}
  - target: {fileID: 0}
    propertyPath: m_SavedProperties.m_Colors.Array.data[5].second.r
    value: 1
    objectReference: {fileID: 0}
  - target: {fileID: 0}
    propertyPath: m_SavedProperties.m_Colors.Array.data[5].second.g
    value: 1
    objectReference: {fileID: 0}
  - target: {fileID: 0}
    propertyPath: m_SavedProperties.m_Colors.Array.data[5].second.b
    value: 1
    objectReference: {fileID: 0}
  - target: {fileID: 0}
    propertyPath: m_SavedProperties.m_Colors.Array.data[5].second.a
    value: 1
    objectReference: {fileID: 0}
  - target: {fileID: 0}
    propertyPath: m_SavedProperties.m_Colors.Array.data[6].first
    value: _HighlightColor
    objectReference: {fileID: 0}
  - target: {fileID: 0}
    propertyPath: m_SavedProperties.m_Colors.Array.data[6].second.r
    value: 0
    objectReference: {fileID: 0}
  - target: {fileID: 0}
    propertyPath: m_SavedProperties.m_Colors.Array.data[6].second.g
    value: 1
    objectReference: {fileID: 0}
  - target: {fileID: 0}
    propertyPath: m_SavedProperties.m_Colors.Array.data[6].second.b
    value: 0.6014011
    objectReference: {fileID: 0}
  - target: {fileID: 0}
    propertyPath: m_SavedProperties.m_Colors.Array.data[6].second.a
    value: 1
    objectReference: {fileID: 0}
  - target: {fileID: 0}
    propertyPath: m_SavedProperties.m_Colors.Array.data[7].first
    value: _HueVariation
    objectReference: {fileID: 0}
  - target: {fileID: 0}
    propertyPath: m_SavedProperties.m_Colors.Array.data[7].second.r
    value: 1
    objectReference: {fileID: 0}
  - target: {fileID: 0}
    propertyPath: m_SavedProperties.m_Colors.Array.data[7].second.g
    value: 0.5
    objectReference: {fileID: 0}
  - target: {fileID: 0}
    propertyPath: m_SavedProperties.m_Colors.Array.data[7].second.b
    value: 0
    objectReference: {fileID: 0}
  - target: {fileID: 0}
    propertyPath: m_SavedProperties.m_Colors.Array.data[7].second.a
    value: 0.1
    objectReference: {fileID: 0}
  - target: {fileID: 0}
    propertyPath: m_SavedProperties.m_Colors.Array.data[8].first
    value: _N
    objectReference: {fileID: 0}
  - target: {fileID: 0}
    propertyPath: m_SavedProperties.m_Colors.Array.data[8].second.r
    value: 0
    objectReference: {fileID: 0}
  - target: {fileID: 0}
    propertyPath: m_SavedProperties.m_Colors.Array.data[8].second.g
    value: 0
    objectReference: {fileID: 0}
  - target: {fileID: 0}
    propertyPath: m_SavedProperties.m_Colors.Array.data[8].second.b
    value: 0
    objectReference: {fileID: 0}
  - target: {fileID: 0}
    propertyPath: m_SavedProperties.m_Colors.Array.data[8].second.a
    value: 0
    objectReference: {fileID: 0}
  - target: {fileID: 0}
    propertyPath: m_SavedProperties.m_Colors.Array.data[9].first
    value: _SceneTint
    objectReference: {fileID: 0}
  - target: {fileID: 0}
    propertyPath: m_SavedProperties.m_Colors.Array.data[9].second.r
    value: 1
    objectReference: {fileID: 0}
  - target: {fileID: 0}
    propertyPath: m_SavedProperties.m_Colors.Array.data[9].second.g
    value: 1
    objectReference: {fileID: 0}
  - target: {fileID: 0}
    propertyPath: m_SavedProperties.m_Colors.Array.data[9].second.b
    value: 1
    objectReference: {fileID: 0}
  - target: {fileID: 0}
    propertyPath: m_SavedProperties.m_Colors.Array.data[9].second.a
    value: 1
    objectReference: {fileID: 0}
  - target: {fileID: 0}
    propertyPath: m_SavedProperties.m_Colors.Array.data[10].first
    value: _SoftParticleFadeParams
    objectReference: {fileID: 0}
  - target: {fileID: 0}
    propertyPath: m_SavedProperties.m_Colors.Array.data[10].second.r
    value: 0
    objectReference: {fileID: 0}
  - target: {fileID: 0}
    propertyPath: m_SavedProperties.m_Colors.Array.data[10].second.g
    value: 0
    objectReference: {fileID: 0}
  - target: {fileID: 0}
    propertyPath: m_SavedProperties.m_Colors.Array.data[10].second.b
    value: 0
    objectReference: {fileID: 0}
  - target: {fileID: 0}
    propertyPath: m_SavedProperties.m_Colors.Array.data[10].second.a
    value: 0
    objectReference: {fileID: 0}
  - target: {fileID: 0}
    propertyPath: m_SavedProperties.m_Colors.Array.data[11].first
    value: _SpecColor
    objectReference: {fileID: 0}
  - target: {fileID: 0}
    propertyPath: m_SavedProperties.m_Colors.Array.data[11].second.r
    value: 0.11320752
    objectReference: {fileID: 0}
  - target: {fileID: 0}
    propertyPath: m_SavedProperties.m_Colors.Array.data[11].second.g
    value: 0.11320752
    objectReference: {fileID: 0}
  - target: {fileID: 0}
    propertyPath: m_SavedProperties.m_Colors.Array.data[11].second.b
    value: 0.11320752
    objectReference: {fileID: 0}
  - target: {fileID: 0}
    propertyPath: m_SavedProperties.m_Colors.Array.data[11].second.a
    value: 1
    objectReference: {fileID: 0}
  - target: {fileID: 0}
    propertyPath: m_SavedProperties.m_Colors.Array.data[12].first
    value: _Specular
    objectReference: {fileID: 0}
  - target: {fileID: 0}
    propertyPath: m_SavedProperties.m_Colors.Array.data[12].second.r
    value: 1
    objectReference: {fileID: 0}
  - target: {fileID: 0}
    propertyPath: m_SavedProperties.m_Colors.Array.data[12].second.g
    value: 0
    objectReference: {fileID: 0}
  - target: {fileID: 0}
    propertyPath: m_SavedProperties.m_Colors.Array.data[12].second.b
    value: 0.045618057
    objectReference: {fileID: 0}
  - target: {fileID: 0}
    propertyPath: m_SavedProperties.m_Colors.Array.data[12].second.a
    value: 0
    objectReference: {fileID: 0}
  - target: {fileID: 0}
    propertyPath: m_SavedProperties.m_Colors.Array.data[13].first
    value: _Tint
    objectReference: {fileID: 0}
  - target: {fileID: 0}
    propertyPath: m_SavedProperties.m_Colors.Array.data[13].second.r
    value: 0.5
    objectReference: {fileID: 0}
  - target: {fileID: 0}
    propertyPath: m_SavedProperties.m_Colors.Array.data[13].second.g
    value: 0.5
    objectReference: {fileID: 0}
  - target: {fileID: 0}
    propertyPath: m_SavedProperties.m_Colors.Array.data[13].second.b
    value: 0.5
    objectReference: {fileID: 0}
  - target: {fileID: 0}
    propertyPath: m_SavedProperties.m_Colors.Array.data[13].second.a
    value: 0.5
    objectReference: {fileID: 0}
  - target: {fileID: 0}
    propertyPath: m_SavedProperties.m_Colors.Array.data[14].first
    value: _TintColor
    objectReference: {fileID: 0}
  - target: {fileID: 0}
    propertyPath: m_SavedProperties.m_Colors.Array.data[14].second.r
    value: 0
    objectReference: {fileID: 0}
  - target: {fileID: 0}
    propertyPath: m_SavedProperties.m_Colors.Array.data[14].second.g
    value: 0
    objectReference: {fileID: 0}
  - target: {fileID: 0}
    propertyPath: m_SavedProperties.m_Colors.Array.data[14].second.b
    value: 0
    objectReference: {fileID: 0}
  - target: {fileID: 0}
    propertyPath: m_SavedProperties.m_Colors.Array.data[14].second.a
    value: 1
    objectReference: {fileID: 0}
  - target: {fileID: 0}
    propertyPath: m_SavedProperties.m_Colors.Array.data[15].first
    value: _UAxis
    objectReference: {fileID: 0}
  - target: {fileID: 0}
    propertyPath: m_SavedProperties.m_Colors.Array.data[15].second.r
    value: 0
    objectReference: {fileID: 0}
  - target: {fileID: 0}
    propertyPath: m_SavedProperties.m_Colors.Array.data[15].second.g
    value: 0
    objectReference: {fileID: 0}
  - target: {fileID: 0}
    propertyPath: m_SavedProperties.m_Colors.Array.data[15].second.b
    value: 0
    objectReference: {fileID: 0}
  - target: {fileID: 0}
    propertyPath: m_SavedProperties.m_Colors.Array.data[15].second.a
    value: 0
    objectReference: {fileID: 0}
  - target: {fileID: 0}
    propertyPath: m_SavedProperties.m_Colors.Array.data[16].first
    value: _UOrigin
    objectReference: {fileID: 0}
  - target: {fileID: 0}
    propertyPath: m_SavedProperties.m_Colors.Array.data[16].second.r
    value: 0
    objectReference: {fileID: 0}
  - target: {fileID: 0}
    propertyPath: m_SavedProperties.m_Colors.Array.data[16].second.g
    value: 0
    objectReference: {fileID: 0}
  - target: {fileID: 0}
    propertyPath: m_SavedProperties.m_Colors.Array.data[16].second.b
    value: 0
    objectReference: {fileID: 0}
  - target: {fileID: 0}
    propertyPath: m_SavedProperties.m_Colors.Array.data[16].second.a
    value: 0
    objectReference: {fileID: 0}
  - target: {fileID: 0}
    propertyPath: m_SavedProperties.m_Colors.Array.data[17].first
    value: _UV_ScaleOffset
    objectReference: {fileID: 0}
  - target: {fileID: 0}
    propertyPath: m_SavedProperties.m_Colors.Array.data[17].second.r
    value: 10
    objectReference: {fileID: 0}
  - target: {fileID: 0}
    propertyPath: m_SavedProperties.m_Colors.Array.data[17].second.g
    value: 14.5
    objectReference: {fileID: 0}
  - target: {fileID: 0}
    propertyPath: m_SavedProperties.m_Colors.Array.data[17].second.b
    value: 0
    objectReference: {fileID: 0}
  - target: {fileID: 0}
    propertyPath: m_SavedProperties.m_Colors.Array.data[17].second.a
    value: 0
    objectReference: {fileID: 0}
  - target: {fileID: 0}
    propertyPath: m_SavedProperties.m_Colors.Array.data[18].first
    value: _VAxis
    objectReference: {fileID: 0}
  - target: {fileID: 0}
    propertyPath: m_SavedProperties.m_Colors.Array.data[18].second.r
    value: 0
    objectReference: {fileID: 0}
  - target: {fileID: 0}
    propertyPath: m_SavedProperties.m_Colors.Array.data[18].second.g
    value: 0
    objectReference: {fileID: 0}
  - target: {fileID: 0}
    propertyPath: m_SavedProperties.m_Colors.Array.data[18].second.b
    value: 0
    objectReference: {fileID: 0}
  - target: {fileID: 0}
    propertyPath: m_SavedProperties.m_Colors.Array.data[18].second.a
    value: 0
    objectReference: {fileID: 0}
  - target: {fileID: 0}
    propertyPath: m_SavedProperties.m_Colors.Array.data[19].first
    value: _VOrigin
    objectReference: {fileID: 0}
  - target: {fileID: 0}
    propertyPath: m_SavedProperties.m_Colors.Array.data[19].second.r
    value: 0
    objectReference: {fileID: 0}
  - target: {fileID: 0}
    propertyPath: m_SavedProperties.m_Colors.Array.data[19].second.g
    value: 0
    objectReference: {fileID: 0}
  - target: {fileID: 0}
    propertyPath: m_SavedProperties.m_Colors.Array.data[19].second.b
    value: 0
    objectReference: {fileID: 0}
  - target: {fileID: 0}
    propertyPath: m_SavedProperties.m_Colors.Array.data[19].second.a
    value: 0
    objectReference: {fileID: 0}
  - target: {fileID: 0}
    propertyPath: m_SavedProperties.m_Colors.Array.data[20].first
    value: g_vOutlineColor
    objectReference: {fileID: 0}
  - target: {fileID: 0}
    propertyPath: m_SavedProperties.m_Colors.Array.data[20].second.r
    value: 0.2924528
    objectReference: {fileID: 0}
  - target: {fileID: 0}
    propertyPath: m_SavedProperties.m_Colors.Array.data[20].second.g
    value: 0.2924528
    objectReference: {fileID: 0}
  - target: {fileID: 0}
    propertyPath: m_SavedProperties.m_Colors.Array.data[20].second.b
    value: 0.2924528
    objectReference: {fileID: 0}
  - target: {fileID: 0}
    propertyPath: m_SavedProperties.m_Colors.Array.data[20].second.a
    value: 1
    objectReference: {fileID: 0}
