%YAML 1.1
%TAG !u! tag:unity3d.com,2011:
--- !u!1001 &100100000
Prefab:
  m_ObjectHideFlags: 1
  serializedVersion: 2
  m_Modification:
    m_TransformParent: {fileID: 0}
    m_Modifications: []
    m_RemovedComponents: []
  m_SourcePrefab: {fileID: 0}
  m_RootGameObject: {fileID: 1429804097907594}
  m_IsPrefabAsset: 1
--- !u!1 &1429804097907594
GameObject:
  m_ObjectHideFlags: 0
  m_CorrespondingSourceObject: {fileID: 0}
  m_PrefabInternal: {fileID: 100100000}
  serializedVersion: 6
  m_Component:
  - component: {fileID: 4868074363559164}
  - component: {fileID: 33434626292846214}
  - component: {fileID: 23922486453527790}
  - component: {fileID: 65154475756791050}
  - component: {fileID: 54497810602805890}
  - component: {fileID: 114129990892950678}
  - component: {fileID: 114289792403401762}
  m_Layer: 10
  m_Name: M900 Mag Fixed
  m_TagString: Untagged
  m_Icon: {fileID: 0}
  m_NavMeshLayer: 0
  m_StaticEditorFlags: 0
  m_IsActive: 1
--- !u!4 &4868074363559164
Transform:
  m_ObjectHideFlags: 1
  m_CorrespondingSourceObject: {fileID: 0}
  m_PrefabInternal: {fileID: 100100000}
  m_GameObject: {fileID: 1429804097907594}
  m_LocalRotation: {x: 0, y: 0, z: 0.7071068, w: 0.7071068}
  m_LocalPosition: {x: 0, y: 0, z: 0}
  m_LocalScale: {x: 10, y: 10, z: 10}
  m_Children: []
  m_Father: {fileID: 0}
  m_RootOrder: 0
  m_LocalEulerAnglesHint: {x: 0, y: 0, z: 90}
--- !u!23 &23922486453527790
MeshRenderer:
  m_ObjectHideFlags: 1
  m_CorrespondingSourceObject: {fileID: 0}
  m_PrefabInternal: {fileID: 100100000}
  m_GameObject: {fileID: 1429804097907594}
  m_Enabled: 1
  m_CastShadows: 1
  m_ReceiveShadows: 1
  m_DynamicOccludee: 1
  m_MotionVectors: 1
  m_LightProbeUsage: 1
  m_ReflectionProbeUsage: 1
  m_RenderingLayerMask: 4294967295
  m_Materials:
  - {fileID: 2100000, guid: 1b11e811695d1f34da6266be2f48e63d, type: 2}
  m_StaticBatchInfo:
    firstSubMesh: 0
    subMeshCount: 0
  m_StaticBatchRoot: {fileID: 0}
  m_ProbeAnchor: {fileID: 0}
  m_LightProbeVolumeOverride: {fileID: 0}
  m_ScaleInLightmap: 1
  m_PreserveUVs: 0
  m_IgnoreNormalsForChartDetection: 0
  m_ImportantGI: 0
  m_StitchLightmapSeams: 0
  m_SelectedEditorRenderState: 3
  m_MinimumChartSize: 4
  m_AutoUVMaxDistance: 0.5
  m_AutoUVMaxAngle: 89
  m_LightmapParameters: {fileID: 0}
  m_SortingLayerID: 0
  m_SortingLayer: 0
  m_SortingOrder: 0
--- !u!33 &33434626292846214
MeshFilter:
  m_ObjectHideFlags: 1
  m_CorrespondingSourceObject: {fileID: 0}
  m_PrefabInternal: {fileID: 100100000}
  m_GameObject: {fileID: 1429804097907594}
  m_Mesh: {fileID: 4300000, guid: 6adaae0dc5dceb040810541d8203a345, type: 3}
--- !u!54 &54497810602805890
Rigidbody:
  m_ObjectHideFlags: 1
  m_CorrespondingSourceObject: {fileID: 0}
  m_PrefabInternal: {fileID: 100100000}
  m_GameObject: {fileID: 1429804097907594}
  serializedVersion: 2
  m_Mass: 0.4
  m_Drag: 0
  m_AngularDrag: 0.05
  m_UseGravity: 1
  m_IsKinematic: 0
  m_Interpolate: 0
  m_Constraints: 0
  m_CollisionDetection: 0
--- !u!65 &65154475756791050
BoxCollider:
  m_ObjectHideFlags: 1
  m_CorrespondingSourceObject: {fileID: 0}
  m_PrefabInternal: {fileID: 100100000}
  m_GameObject: {fileID: 1429804097907594}
  m_Material: {fileID: 0}
  m_IsTrigger: 0
  m_Enabled: 1
  serializedVersion: 2
  m_Size: {x: 0.0038135408, y: 0.019675303, z: 0.010119799}
  m_Center: {x: 0.000052323216, y: -0.008080743, z: 0.011776961}
--- !u!114 &114129990892950678
MonoBehaviour:
  m_ObjectHideFlags: 1
  m_CorrespondingSourceObject: {fileID: 0}
  m_PrefabInternal: {fileID: 100100000}
  m_GameObject: {fileID: 1429804097907594}
  m_Enabled: 1
  m_EditorHideFlags: 0
  m_Script: {fileID: 11500000, guid: adba96dfb415ee249974e0c08d5035b9, type: 3}
  m_Name: 
  m_EditorClassIdentifier: 
  body: {fileID: 0}
  indestrucable: 0
  durability: 100
  density: 0.4
  dmgThreshold: 5
  isPickedUp: 0
  objectType: 0
  onHolding:
    m_PersistentCalls:
      m_Calls: []
    m_TypeName: UnityEngine.Events.UnityEvent, UnityEngine.CoreModule, Version=0.0.0.0,
      Culture=neutral, PublicKeyToken=null
  onKilled:
    m_PersistentCalls:
      m_Calls: []
    m_TypeName: PhysicalObject+ColliderEvent, Assembly-CSharp, Version=0.0.0.0, Culture=neutral,
      PublicKeyToken=null
  onHit:
    m_PersistentCalls:
      m_Calls: []
    m_TypeName: PhysicalObject+ColliderEvent, Assembly-CSharp, Version=0.0.0.0, Culture=neutral,
      PublicKeyToken=null
  onDurabilityLoss:
    m_PersistentCalls:
      m_Calls: []
    m_TypeName: PhysicalObject+ColliderEvent, Assembly-CSharp, Version=0.0.0.0, Culture=neutral,
      PublicKeyToken=null
  onPickup:
    m_PersistentCalls:
      m_Calls: []
    m_TypeName: PhysicalObject+HandEvent, Assembly-CSharp, Version=0.0.0.0, Culture=neutral,
      PublicKeyToken=null
  onDrop:
    m_PersistentCalls:
      m_Calls: []
    m_TypeName: PhysicalObject+HandEvent, Assembly-CSharp, Version=0.0.0.0, Culture=neutral,
      PublicKeyToken=null
  onPlayerDrop:
    m_PersistentCalls:
      m_Calls: []
    m_TypeName: PhysicalObject+HandEvent, Assembly-CSharp, Version=0.0.0.0, Culture=neutral,
      PublicKeyToken=null
  onActivate:
    m_PersistentCalls:
      m_Calls: []
    m_TypeName: PhysicalObject+HandEvent, Assembly-CSharp, Version=0.0.0.0, Culture=neutral,
      PublicKeyToken=null
  magazineKey: M900
  maxAmmo: 100
--- !u!114 &114289792403401762
MonoBehaviour:
  m_ObjectHideFlags: 1
  m_CorrespondingSourceObject: {fileID: 0}
  m_PrefabInternal: {fileID: 100100000}
  m_GameObject: {fileID: 1429804097907594}
  m_Enabled: 1
  m_EditorHideFlags: 0
  m_Script: {fileID: 11500000, guid: bab092b0e2c919343a86a6c0dd2dcdcf, type: 3}
  m_Name: 
  m_EditorClassIdentifier: 
  byWallProbability: 0
  notWallProbability: 0
  spawnByDoorProbability: 0
  spawnOnTop: 1
  angleMaxOffset: 0
  allowOtherOnTop: 0
  relativeSpawnList: []
  neededSpawnSpace:
    m_Center: {x: 0.08080744, y: 0.00052324124, z: 0.084184304}
    m_Extent: {x: 0.09837653, y: 0.019067718, z: 0.084184304}
