%YAML 1.1
%TAG !u! tag:unity3d.com,2011:
--- !u!1001 &100100000
Prefab:
  m_ObjectHideFlags: 1
  serializedVersion: 2
  m_Modification:
    m_TransformParent: {fileID: 0}
    m_Modifications: []
    m_RemovedComponents: []
  m_SourcePrefab: {fileID: 0}
  m_RootGameObject: {fileID: 1742185135610922}
  m_IsPrefabAsset: 1
--- !u!1 &1742185135610922
GameObject:
  m_ObjectHideFlags: 0
  m_CorrespondingSourceObject: {fileID: 0}
  m_PrefabInternal: {fileID: 100100000}
  serializedVersion: 6
  m_Component:
  - component: {fileID: 4926769828266658}
  - component: {fileID: 33423382143717350}
  - component: {fileID: 23506364826257066}
  - component: {fileID: 114873089754301744}
  - component: {fileID: 54658494998849532}
  - component: {fileID: 114424929014736016}
  - component: {fileID: 65527492484495284}
  - component: {fileID: 65023280768896754}
  m_Layer: 9
  m_Name: Cup1
  m_TagString: Untagged
  m_Icon: {fileID: 0}
  m_NavMeshLayer: 0
  m_StaticEditorFlags: 0
  m_IsActive: 1
--- !u!4 &4926769828266658
Transform:
  m_ObjectHideFlags: 1
  m_CorrespondingSourceObject: {fileID: 0}
  m_PrefabInternal: {fileID: 100100000}
  m_GameObject: {fileID: 1742185135610922}
  m_LocalRotation: {x: 0.00000022409128, y: 0.0000011741375, z: -0.0000010305083,
    w: 1}
  m_LocalPosition: {x: 0, y: 0, z: 0}
  m_LocalScale: {x: 2, y: 2, z: 2}
  m_Children: []
  m_Father: {fileID: 0}
  m_RootOrder: 0
  m_LocalEulerAnglesHint: {x: 0, y: 0, z: 0}
--- !u!23 &23506364826257066
MeshRenderer:
  m_ObjectHideFlags: 1
  m_CorrespondingSourceObject: {fileID: 0}
  m_PrefabInternal: {fileID: 100100000}
  m_GameObject: {fileID: 1742185135610922}
  m_Enabled: 1
  m_CastShadows: 1
  m_ReceiveShadows: 1
  m_DynamicOccludee: 1
  m_MotionVectors: 1
  m_LightProbeUsage: 1
  m_ReflectionProbeUsage: 1
  m_RenderingLayerMask: 4294967295
  m_Materials:
  - {fileID: 2100000, guid: 080eae1a477c0d74b8e1f5575e772ef0, type: 2}
  m_StaticBatchInfo:
    firstSubMesh: 0
    subMeshCount: 0
  m_StaticBatchRoot: {fileID: 0}
  m_ProbeAnchor: {fileID: 0}
  m_LightProbeVolumeOverride: {fileID: 0}
  m_ScaleInLightmap: 1
  m_PreserveUVs: 0
  m_IgnoreNormalsForChartDetection: 0
  m_ImportantGI: 0
  m_StitchLightmapSeams: 0
  m_SelectedEditorRenderState: 3
  m_MinimumChartSize: 4
  m_AutoUVMaxDistance: 0.5
  m_AutoUVMaxAngle: 89
  m_LightmapParameters: {fileID: 0}
  m_SortingLayerID: 0
  m_SortingLayer: 0
  m_SortingOrder: 0
--- !u!33 &33423382143717350
MeshFilter:
  m_ObjectHideFlags: 1
  m_CorrespondingSourceObject: {fileID: 0}
  m_PrefabInternal: {fileID: 100100000}
  m_GameObject: {fileID: 1742185135610922}
  m_Mesh: {fileID: 4300000, guid: 4dfec53f53b61bb4384c4b7ce861e176, type: 3}
--- !u!54 &54658494998849532
Rigidbody:
  m_ObjectHideFlags: 1
  m_CorrespondingSourceObject: {fileID: 0}
  m_PrefabInternal: {fileID: 100100000}
  m_GameObject: {fileID: 1742185135610922}
  serializedVersion: 2
  m_Mass: 1
  m_Drag: 0
  m_AngularDrag: 0.05
  m_UseGravity: 1
  m_IsKinematic: 0
  m_Interpolate: 0
  m_Constraints: 0
  m_CollisionDetection: 0
--- !u!65 &65023280768896754
BoxCollider:
  m_ObjectHideFlags: 1
  m_CorrespondingSourceObject: {fileID: 0}
  m_PrefabInternal: {fileID: 100100000}
  m_GameObject: {fileID: 1742185135610922}
  m_Material: {fileID: 0}
  m_IsTrigger: 0
  m_Enabled: 1
  serializedVersion: 2
  m_Size: {x: 0.058868885, y: 0.069717, z: 0.05779648}
  m_Center: {x: -0.002637148, y: 0.0348585, z: -0.00061416626}
--- !u!65 &65527492484495284
BoxCollider:
  m_ObjectHideFlags: 1
  m_CorrespondingSourceObject: {fileID: 0}
  m_PrefabInternal: {fileID: 100100000}
  m_GameObject: {fileID: 1742185135610922}
  m_Material: {fileID: 0}
  m_IsTrigger: 0
  m_Enabled: 1
  serializedVersion: 2
  m_Size: {x: 0.02534151, y: 0.04525274, z: 0.024267197}
  m_Center: {x: -0.00089001656, y: 0.03579101, z: -0.04573059}
--- !u!114 &114424929014736016
MonoBehaviour:
  m_ObjectHideFlags: 1
  m_CorrespondingSourceObject: {fileID: 0}
  m_PrefabInternal: {fileID: 100100000}
  m_GameObject: {fileID: 1742185135610922}
  m_Enabled: 1
  m_EditorHideFlags: 0
  m_Script: {fileID: 11500000, guid: b2497bc4c3a6e4d49adac26e9bc2430c, type: 3}
  m_Name: 
  m_EditorClassIdentifier: 
  indestrucable: 0
  durability: 10
  density: 0.1
  dmgThreshold: 2
  isPickedUp: 0
  objectType: 6
  onDestroy:
    m_PersistentCalls:
      m_Calls: []
    m_TypeName: UnityEngine.Events.UnityEvent, UnityEngine.CoreModule, Version=0.0.0.0,
      Culture=neutral, PublicKeyToken=null
  onHolding:
    m_PersistentCalls:
      m_Calls: []
    m_TypeName: UnityEngine.Events.UnityEvent, UnityEngine.CoreModule, Version=0.0.0.0,
      Culture=neutral, PublicKeyToken=null
  onHit:
    m_PersistentCalls:
      m_Calls: []
    m_TypeName: PhysicalObject+ColliderEvent, Assembly-CSharp, Version=0.0.0.0, Culture=neutral,
      PublicKeyToken=null
  onDurabilityLoss:
    m_PersistentCalls:
      m_Calls: []
    m_TypeName: PhysicalObject+ColliderEvent, Assembly-CSharp, Version=0.0.0.0, Culture=neutral,
      PublicKeyToken=null
  onPickup:
    m_PersistentCalls:
      m_Calls: []
    m_TypeName: PhysicalObject+HandEvent, Assembly-CSharp, Version=0.0.0.0, Culture=neutral,
      PublicKeyToken=null
  onDrop:
    m_PersistentCalls:
      m_Calls: []
    m_TypeName: PhysicalObject+HandEvent, Assembly-CSharp, Version=0.0.0.0, Culture=neutral,
      PublicKeyToken=null
  onActivate:
    m_PersistentCalls:
      m_Calls: []
    m_TypeName: PhysicalObject+HandEvent, Assembly-CSharp, Version=0.0.0.0, Culture=neutral,
      PublicKeyToken=null
--- !u!114 &114873089754301744
MonoBehaviour:
  m_ObjectHideFlags: 1
  m_CorrespondingSourceObject: {fileID: 0}
  m_PrefabInternal: {fileID: 100100000}
  m_GameObject: {fileID: 1742185135610922}
  m_Enabled: 1
  m_EditorHideFlags: 0
  m_Script: {fileID: 11500000, guid: bab092b0e2c919343a86a6c0dd2dcdcf, type: 3}
  m_Name: 
  m_EditorClassIdentifier: 
  byWallProbability: 0
  notWallProbability: 0
  spawnByDoorProbability: 0
  spawnOnTop: 1
  angleMaxOffset: 360
  allowOtherOnTop: 0
  relativeSpawnList: []
  neededSpawnSpace:
    m_Center: {x: 162.98795, y: 0.0706946, z: 17.99153}
    m_Extent: {x: 0.04, y: 0.04, z: 0.06}
