%YAML 1.1
%TAG !u! tag:unity3d.com,2011:
--- !u!1001 &100100000
Prefab:
  m_ObjectHideFlags: 1
  serializedVersion: 2
  m_Modification:
    m_TransformParent: {fileID: 0}
    m_Modifications: []
    m_RemovedComponents: []
  m_SourcePrefab: {fileID: 0}
  m_RootGameObject: {fileID: 1130219423517832}
  m_IsPrefabAsset: 1
--- !u!1 &1130219423517832
GameObject:
  m_ObjectHideFlags: 0
  m_CorrespondingSourceObject: {fileID: 0}
  m_PrefabInternal: {fileID: 100100000}
  serializedVersion: 6
  m_Component:
  - component: {fileID: 4863605282708434}
  - component: {fileID: 33863123497661192}
  - component: {fileID: 64069025262791492}
  - component: {fileID: 23986373634661384}
  - component: {fileID: 114989566137451278}
  m_Layer: 0
  m_Name: HugeRoom Room - lmao_3
  m_TagString: Untagged
  m_Icon: {fileID: 0}
  m_NavMeshLayer: 0
  m_StaticEditorFlags: 0
  m_IsActive: 1
--- !u!4 &4863605282708434
Transform:
  m_ObjectHideFlags: 1
  m_CorrespondingSourceObject: {fileID: 0}
  m_PrefabInternal: {fileID: 100100000}
  m_GameObject: {fileID: 1130219423517832}
  m_LocalRotation: {x: 0, y: 0, z: 0, w: 1}
  m_LocalPosition: {x: 0, y: 0, z: 0}
  m_LocalScale: {x: 1, y: 1, z: 1}
  m_Children: []
  m_Father: {fileID: 0}
  m_RootOrder: 0
  m_LocalEulerAnglesHint: {x: 0, y: 0, z: 0}
--- !u!23 &23986373634661384
MeshRenderer:
  m_ObjectHideFlags: 1
  m_CorrespondingSourceObject: {fileID: 0}
  m_PrefabInternal: {fileID: 100100000}
  m_GameObject: {fileID: 1130219423517832}
  m_Enabled: 1
  m_CastShadows: 2
  m_ReceiveShadows: 1
  m_DynamicOccludee: 1
  m_MotionVectors: 1
  m_LightProbeUsage: 1
  m_ReflectionProbeUsage: 1
  m_RenderingLayerMask: 4294967295
  m_Materials:
  - {fileID: 2100000, guid: 701cee75003db5748810ebc888cf05d7, type: 2}
  - {fileID: 2100000, guid: 829ebffda3b49a54caa13c257896aa4a, type: 2}
  m_StaticBatchInfo:
    firstSubMesh: 0
    subMeshCount: 0
  m_StaticBatchRoot: {fileID: 0}
  m_ProbeAnchor: {fileID: 0}
  m_LightProbeVolumeOverride: {fileID: 0}
  m_ScaleInLightmap: 1
  m_PreserveUVs: 0
  m_IgnoreNormalsForChartDetection: 0
  m_ImportantGI: 0
  m_StitchLightmapSeams: 0
  m_SelectedEditorRenderState: 3
  m_MinimumChartSize: 4
  m_AutoUVMaxDistance: 0.5
  m_AutoUVMaxAngle: 89
  m_LightmapParameters: {fileID: 0}
  m_SortingLayerID: 0
  m_SortingLayer: 0
  m_SortingOrder: 0
--- !u!33 &33863123497661192
MeshFilter:
  m_ObjectHideFlags: 1
  m_CorrespondingSourceObject: {fileID: 0}
  m_PrefabInternal: {fileID: 100100000}
  m_GameObject: {fileID: 1130219423517832}
  m_Mesh: {fileID: 4300000, guid: 9ce07c23f67afb045a893b8463a58bfd, type: 2}
--- !u!64 &64069025262791492
MeshCollider:
  m_ObjectHideFlags: 1
  m_CorrespondingSourceObject: {fileID: 0}
  m_PrefabInternal: {fileID: 100100000}
  m_GameObject: {fileID: 1130219423517832}
  m_Material: {fileID: 0}
  m_IsTrigger: 0
  m_Enabled: 1
  serializedVersion: 3
  m_Convex: 0
  m_CookingOptions: 14
  m_SkinWidth: 0.01
  m_Mesh: {fileID: 4300000, guid: 0fe6a96173f03f241acc3b02f8d88e37, type: 2}
--- !u!114 &114989566137451278
MonoBehaviour:
  m_ObjectHideFlags: 1
  m_CorrespondingSourceObject: {fileID: 0}
  m_PrefabInternal: {fileID: 100100000}
  m_GameObject: {fileID: 1130219423517832}
  m_Enabled: 1
  m_EditorHideFlags: 0
  m_Script: {fileID: 11500000, guid: f1497857eeb90b34b8bf6469ad8f656e, type: 3}
  m_Name: 
  m_EditorClassIdentifier: 
  corners:
  - {x: 12, y: 0}
  - {x: 26, y: 0}
  - {x: 0, y: 2}
  - {x: 10, y: 2}
  - {x: 28, y: 2}
  - {x: 34, y: 2}
  - {x: 0, y: 6}
  - {x: 2, y: 6}
  - {x: 4, y: 8}
  - {x: 4, y: 10}
  - {x: 10, y: 10}
  - {x: 12, y: 12}
  - {x: 12, y: 20}
  - {x: 16, y: 20}
  - {x: 28, y: 20}
  - {x: 34, y: 20}
  - {x: 18, y: 22}
  - {x: 26, y: 22}
  bounds:
    x: 0
    y: 0
    width: 34
    height: 22
  unitSpaceFloors:
  - {x: 6, y: 1}
  - {x: 7, y: 1}
  - {x: 8, y: 1}
  - {x: 9, y: 1}
  - {x: 10, y: 1}
  - {x: 11, y: 1}
  - {x: 12, y: 1}
  - {x: 13, y: 1}
  - {x: 1, y: 2}
  - {x: 2, y: 2}
  - {x: 3, y: 2}
  - {x: 4, y: 2}
  - {x: 5, y: 2}
  - {x: 6, y: 2}
  - {x: 7, y: 2}
  - {x: 8, y: 2}
  - {x: 9, y: 2}
  - {x: 10, y: 2}
  - {x: 11, y: 2}
  - {x: 12, y: 2}
  - {x: 13, y: 2}
  - {x: 14, y: 2}
  - {x: 15, y: 2}
  - {x: 16, y: 2}
  - {x: 2, y: 3}
  - {x: 3, y: 3}
  - {x: 4, y: 3}
  - {x: 5, y: 3}
  - {x: 6, y: 3}
  - {x: 7, y: 3}
  - {x: 8, y: 3}
  - {x: 9, y: 3}
  - {x: 10, y: 3}
  - {x: 11, y: 3}
  - {x: 12, y: 3}
  - {x: 13, y: 3}
  - {x: 14, y: 3}
  - {x: 15, y: 3}
  - {x: 16, y: 3}
  - {x: 3, y: 4}
  - {x: 4, y: 4}
  - {x: 5, y: 4}
  - {x: 6, y: 4}
  - {x: 7, y: 4}
  - {x: 8, y: 4}
  - {x: 9, y: 4}
  - {x: 10, y: 4}
  - {x: 11, y: 4}
  - {x: 12, y: 4}
  - {x: 13, y: 4}
  - {x: 14, y: 4}
  - {x: 15, y: 4}
  - {x: 16, y: 4}
  - {x: 6, y: 5}
  - {x: 7, y: 5}
  - {x: 8, y: 5}
  - {x: 9, y: 5}
  - {x: 10, y: 5}
  - {x: 11, y: 5}
  - {x: 12, y: 5}
  - {x: 13, y: 5}
  - {x: 14, y: 5}
  - {x: 15, y: 5}
  - {x: 16, y: 5}
  - {x: 7, y: 6}
  - {x: 8, y: 6}
  - {x: 9, y: 6}
  - {x: 10, y: 6}
  - {x: 11, y: 6}
  - {x: 12, y: 6}
  - {x: 13, y: 6}
  - {x: 14, y: 6}
  - {x: 15, y: 6}
  - {x: 16, y: 6}
  - {x: 7, y: 7}
  - {x: 8, y: 7}
  - {x: 9, y: 7}
  - {x: 10, y: 7}
  - {x: 11, y: 7}
  - {x: 12, y: 7}
  - {x: 13, y: 7}
  - {x: 14, y: 7}
  - {x: 15, y: 7}
  - {x: 16, y: 7}
  - {x: 7, y: 8}
  - {x: 8, y: 8}
  - {x: 9, y: 8}
  - {x: 10, y: 8}
  - {x: 11, y: 8}
  - {x: 12, y: 8}
  - {x: 13, y: 8}
  - {x: 14, y: 8}
  - {x: 15, y: 8}
  - {x: 16, y: 8}
  - {x: 7, y: 9}
  - {x: 8, y: 9}
  - {x: 9, y: 9}
  - {x: 10, y: 9}
  - {x: 11, y: 9}
  - {x: 12, y: 9}
  - {x: 13, y: 9}
  - {x: 14, y: 9}
  - {x: 15, y: 9}
  - {x: 16, y: 9}
  - {x: 9, y: 10}
  - {x: 10, y: 10}
  - {x: 11, y: 10}
  - {x: 12, y: 10}
  - {x: 13, y: 10}
  unitSpaceWalls:
  - {x: 7, y: 0}
  - {x: 8, y: 0}
  - {x: 9, y: 0}
  - {x: 10, y: 0}
  - {x: 11, y: 0}
  - {x: 12, y: 0}
  - {x: 1, y: 1}
  - {x: 2, y: 1}
  - {x: 3, y: 1}
  - {x: 4, y: 1}
  - {x: 15, y: 1}
  - {x: 16, y: 1}
  - {x: 0, y: 2}
  - {x: 17, y: 2}
  - {x: 17, y: 3}
  - {x: 17, y: 4}
  - {x: 3, y: 5}
  - {x: 4, y: 5}
  - {x: 17, y: 5}
  - {x: 17, y: 6}
  - {x: 6, y: 7}
  - {x: 17, y: 7}
  - {x: 6, y: 8}
  - {x: 17, y: 8}
  - {x: 6, y: 9}
  - {x: 17, y: 9}
  - {x: 7, y: 10}
  - {x: 15, y: 10}
  - {x: 16, y: 10}
  - {x: 10, y: 11}
  - {x: 11, y: 11}
  - {x: 12, y: 11}
