%YAML 1.1
%TAG !u! tag:unity3d.com,2011:
--- !u!1001 &100100000
Prefab:
  m_ObjectHideFlags: 1
  serializedVersion: 2
  m_Modification:
    m_TransformParent: {fileID: 0}
    m_Modifications: []
    m_RemovedComponents: []
  m_SourcePrefab: {fileID: 0}
  m_RootGameObject: {fileID: 1966257662950848}
  m_IsPrefabAsset: 1
--- !u!1 &1966257662950848
GameObject:
  m_ObjectHideFlags: 0
  m_CorrespondingSourceObject: {fileID: 0}
  m_PrefabInternal: {fileID: 100100000}
  serializedVersion: 6
  m_Component:
  - component: {fileID: 4260795110562246}
  - component: {fileID: 33274923241853382}
  - component: {fileID: 64535925713369054}
  - component: {fileID: 23787743724242442}
  - component: {fileID: 114768863955470436}
  m_Layer: 0
  m_Name: HugeRoom Room - lmao_21
  m_TagString: Untagged
  m_Icon: {fileID: 0}
  m_NavMeshLayer: 0
  m_StaticEditorFlags: 0
  m_IsActive: 1
--- !u!4 &4260795110562246
Transform:
  m_ObjectHideFlags: 1
  m_CorrespondingSourceObject: {fileID: 0}
  m_PrefabInternal: {fileID: 100100000}
  m_GameObject: {fileID: 1966257662950848}
  m_LocalRotation: {x: 0, y: 0, z: 0, w: 1}
  m_LocalPosition: {x: 0, y: 0, z: 0}
  m_LocalScale: {x: 1, y: 1, z: 1}
  m_Children: []
  m_Father: {fileID: 0}
  m_RootOrder: 0
  m_LocalEulerAnglesHint: {x: 0, y: 0, z: 0}
--- !u!23 &23787743724242442
MeshRenderer:
  m_ObjectHideFlags: 1
  m_CorrespondingSourceObject: {fileID: 0}
  m_PrefabInternal: {fileID: 100100000}
  m_GameObject: {fileID: 1966257662950848}
  m_Enabled: 1
  m_CastShadows: 2
  m_ReceiveShadows: 1
  m_DynamicOccludee: 1
  m_MotionVectors: 1
  m_LightProbeUsage: 1
  m_ReflectionProbeUsage: 1
  m_RenderingLayerMask: 4294967295
  m_Materials:
  - {fileID: 2100000, guid: 0bdd9d79c651e1144acc602dd181ef07, type: 2}
  - {fileID: 2100000, guid: e8b16aa749ff6214bae7f61fd949f71d, type: 2}
  m_StaticBatchInfo:
    firstSubMesh: 0
    subMeshCount: 0
  m_StaticBatchRoot: {fileID: 0}
  m_ProbeAnchor: {fileID: 0}
  m_LightProbeVolumeOverride: {fileID: 0}
  m_ScaleInLightmap: 1
  m_PreserveUVs: 0
  m_IgnoreNormalsForChartDetection: 0
  m_ImportantGI: 0
  m_StitchLightmapSeams: 0
  m_SelectedEditorRenderState: 3
  m_MinimumChartSize: 4
  m_AutoUVMaxDistance: 0.5
  m_AutoUVMaxAngle: 89
  m_LightmapParameters: {fileID: 0}
  m_SortingLayerID: 0
  m_SortingLayer: 0
  m_SortingOrder: 0
--- !u!33 &33274923241853382
MeshFilter:
  m_ObjectHideFlags: 1
  m_CorrespondingSourceObject: {fileID: 0}
  m_PrefabInternal: {fileID: 100100000}
  m_GameObject: {fileID: 1966257662950848}
  m_Mesh: {fileID: 4300000, guid: 5b307f6ea1bfcdb4686aad45d0ca6a7f, type: 2}
--- !u!64 &64535925713369054
MeshCollider:
  m_ObjectHideFlags: 1
  m_CorrespondingSourceObject: {fileID: 0}
  m_PrefabInternal: {fileID: 100100000}
  m_GameObject: {fileID: 1966257662950848}
  m_Material: {fileID: 0}
  m_IsTrigger: 0
  m_Enabled: 1
  serializedVersion: 3
  m_Convex: 0
  m_CookingOptions: 14
  m_SkinWidth: 0.01
  m_Mesh: {fileID: 4300000, guid: df4091e86f3846943a0f198eef51e4e5, type: 2}
--- !u!114 &114768863955470436
MonoBehaviour:
  m_ObjectHideFlags: 1
  m_CorrespondingSourceObject: {fileID: 0}
  m_PrefabInternal: {fileID: 100100000}
  m_GameObject: {fileID: 1966257662950848}
  m_Enabled: 1
  m_EditorHideFlags: 0
  m_Script: {fileID: 11500000, guid: f1497857eeb90b34b8bf6469ad8f656e, type: 3}
  m_Name: 
  m_EditorClassIdentifier: 
  corners:
  - {x: 10, y: 0}
  - {x: 36, y: 0}
  - {x: 10, y: 14}
  - {x: 36, y: 14}
  - {x: 2, y: 16}
  - {x: 8, y: 16}
  - {x: 38, y: 16}
  - {x: 2, y: 18}
  - {x: 0, y: 20}
  - {x: 0, y: 32}
  - {x: 2, y: 34}
  - {x: 28, y: 36}
  - {x: 38, y: 36}
  - {x: 26, y: 38}
  - {x: 2, y: 46}
  - {x: 26, y: 46}
  bounds:
    x: 0
    y: 0
    width: 38
    height: 46
  unitSpaceFloors:
  - {x: 6, y: 1}
  - {x: 7, y: 1}
  - {x: 8, y: 1}
  - {x: 9, y: 1}
  - {x: 10, y: 1}
  - {x: 11, y: 1}
  - {x: 12, y: 1}
  - {x: 13, y: 1}
  - {x: 14, y: 1}
  - {x: 15, y: 1}
  - {x: 16, y: 1}
  - {x: 17, y: 1}
  - {x: 6, y: 2}
  - {x: 7, y: 2}
  - {x: 8, y: 2}
  - {x: 9, y: 2}
  - {x: 10, y: 2}
  - {x: 11, y: 2}
  - {x: 12, y: 2}
  - {x: 13, y: 2}
  - {x: 14, y: 2}
  - {x: 15, y: 2}
  - {x: 16, y: 2}
  - {x: 17, y: 2}
  - {x: 6, y: 3}
  - {x: 7, y: 3}
  - {x: 8, y: 3}
  - {x: 9, y: 3}
  - {x: 10, y: 3}
  - {x: 11, y: 3}
  - {x: 12, y: 3}
  - {x: 13, y: 3}
  - {x: 14, y: 3}
  - {x: 15, y: 3}
  - {x: 16, y: 3}
  - {x: 17, y: 3}
  - {x: 6, y: 4}
  - {x: 7, y: 4}
  - {x: 8, y: 4}
  - {x: 9, y: 4}
  - {x: 10, y: 4}
  - {x: 11, y: 4}
  - {x: 12, y: 4}
  - {x: 13, y: 4}
  - {x: 14, y: 4}
  - {x: 15, y: 4}
  - {x: 16, y: 4}
  - {x: 17, y: 4}
  - {x: 6, y: 5}
  - {x: 7, y: 5}
  - {x: 8, y: 5}
  - {x: 9, y: 5}
  - {x: 10, y: 5}
  - {x: 11, y: 5}
  - {x: 12, y: 5}
  - {x: 13, y: 5}
  - {x: 14, y: 5}
  - {x: 15, y: 5}
  - {x: 16, y: 5}
  - {x: 17, y: 5}
  - {x: 6, y: 6}
  - {x: 7, y: 6}
  - {x: 8, y: 6}
  - {x: 9, y: 6}
  - {x: 10, y: 6}
  - {x: 11, y: 6}
  - {x: 12, y: 6}
  - {x: 13, y: 6}
  - {x: 14, y: 6}
  - {x: 15, y: 6}
  - {x: 16, y: 6}
  - {x: 17, y: 6}
  - {x: 6, y: 7}
  - {x: 7, y: 7}
  - {x: 8, y: 7}
  - {x: 9, y: 7}
  - {x: 10, y: 7}
  - {x: 11, y: 7}
  - {x: 12, y: 7}
  - {x: 13, y: 7}
  - {x: 14, y: 7}
  - {x: 15, y: 7}
  - {x: 16, y: 7}
  - {x: 17, y: 7}
  - {x: 5, y: 8}
  - {x: 6, y: 8}
  - {x: 7, y: 8}
  - {x: 8, y: 8}
  - {x: 9, y: 8}
  - {x: 10, y: 8}
  - {x: 11, y: 8}
  - {x: 12, y: 8}
  - {x: 13, y: 8}
  - {x: 14, y: 8}
  - {x: 15, y: 8}
  - {x: 16, y: 8}
  - {x: 17, y: 8}
  - {x: 18, y: 8}
  - {x: 2, y: 9}
  - {x: 3, y: 9}
  - {x: 4, y: 9}
  - {x: 5, y: 9}
  - {x: 6, y: 9}
  - {x: 7, y: 9}
  - {x: 8, y: 9}
  - {x: 9, y: 9}
  - {x: 10, y: 9}
  - {x: 11, y: 9}
  - {x: 12, y: 9}
  - {x: 13, y: 9}
  - {x: 14, y: 9}
  - {x: 15, y: 9}
  - {x: 16, y: 9}
  - {x: 17, y: 9}
  - {x: 18, y: 9}
  - {x: 1, y: 10}
  - {x: 2, y: 10}
  - {x: 3, y: 10}
  - {x: 4, y: 10}
  - {x: 5, y: 10}
  - {x: 6, y: 10}
  - {x: 7, y: 10}
  - {x: 8, y: 10}
  - {x: 9, y: 10}
  - {x: 10, y: 10}
  - {x: 11, y: 10}
  - {x: 12, y: 10}
  - {x: 13, y: 10}
  - {x: 14, y: 10}
  - {x: 15, y: 10}
  - {x: 16, y: 10}
  - {x: 17, y: 10}
  - {x: 18, y: 10}
  - {x: 1, y: 11}
  - {x: 2, y: 11}
  - {x: 3, y: 11}
  - {x: 4, y: 11}
  - {x: 5, y: 11}
  - {x: 6, y: 11}
  - {x: 7, y: 11}
  - {x: 8, y: 11}
  - {x: 9, y: 11}
  - {x: 10, y: 11}
  - {x: 11, y: 11}
  - {x: 12, y: 11}
  - {x: 13, y: 11}
  - {x: 14, y: 11}
  - {x: 15, y: 11}
  - {x: 16, y: 11}
  - {x: 17, y: 11}
  - {x: 18, y: 11}
  - {x: 1, y: 12}
  - {x: 2, y: 12}
  - {x: 3, y: 12}
  - {x: 4, y: 12}
  - {x: 5, y: 12}
  - {x: 6, y: 12}
  - {x: 7, y: 12}
  - {x: 8, y: 12}
  - {x: 9, y: 12}
  - {x: 10, y: 12}
  - {x: 11, y: 12}
  - {x: 12, y: 12}
  - {x: 13, y: 12}
  - {x: 14, y: 12}
  - {x: 15, y: 12}
  - {x: 16, y: 12}
  - {x: 17, y: 12}
  - {x: 18, y: 12}
  - {x: 1, y: 13}
  - {x: 2, y: 13}
  - {x: 3, y: 13}
  - {x: 4, y: 13}
  - {x: 5, y: 13}
  - {x: 6, y: 13}
  - {x: 7, y: 13}
  - {x: 8, y: 13}
  - {x: 9, y: 13}
  - {x: 10, y: 13}
  - {x: 11, y: 13}
  - {x: 12, y: 13}
  - {x: 13, y: 13}
  - {x: 14, y: 13}
  - {x: 15, y: 13}
  - {x: 16, y: 13}
  - {x: 17, y: 13}
  - {x: 18, y: 13}
  - {x: 1, y: 14}
  - {x: 2, y: 14}
  - {x: 3, y: 14}
  - {x: 4, y: 14}
  - {x: 5, y: 14}
  - {x: 6, y: 14}
  - {x: 7, y: 14}
  - {x: 8, y: 14}
  - {x: 9, y: 14}
  - {x: 10, y: 14}
  - {x: 11, y: 14}
  - {x: 12, y: 14}
  - {x: 13, y: 14}
  - {x: 14, y: 14}
  - {x: 15, y: 14}
  - {x: 16, y: 14}
  - {x: 17, y: 14}
  - {x: 18, y: 14}
  - {x: 1, y: 15}
  - {x: 2, y: 15}
  - {x: 3, y: 15}
  - {x: 4, y: 15}
  - {x: 5, y: 15}
  - {x: 6, y: 15}
  - {x: 7, y: 15}
  - {x: 8, y: 15}
  - {x: 9, y: 15}
  - {x: 10, y: 15}
  - {x: 11, y: 15}
  - {x: 12, y: 15}
  - {x: 13, y: 15}
  - {x: 14, y: 15}
  - {x: 15, y: 15}
  - {x: 16, y: 15}
  - {x: 17, y: 15}
  - {x: 18, y: 15}
  - {x: 1, y: 16}
  - {x: 2, y: 16}
  - {x: 3, y: 16}
  - {x: 4, y: 16}
  - {x: 5, y: 16}
  - {x: 6, y: 16}
  - {x: 7, y: 16}
  - {x: 8, y: 16}
  - {x: 9, y: 16}
  - {x: 10, y: 16}
  - {x: 11, y: 16}
  - {x: 12, y: 16}
  - {x: 13, y: 16}
  - {x: 14, y: 16}
  - {x: 15, y: 16}
  - {x: 16, y: 16}
  - {x: 17, y: 16}
  - {x: 18, y: 16}
  - {x: 2, y: 17}
  - {x: 3, y: 17}
  - {x: 4, y: 17}
  - {x: 5, y: 17}
  - {x: 6, y: 17}
  - {x: 7, y: 17}
  - {x: 8, y: 17}
  - {x: 9, y: 17}
  - {x: 10, y: 17}
  - {x: 11, y: 17}
  - {x: 12, y: 17}
  - {x: 13, y: 17}
  - {x: 14, y: 17}
  - {x: 15, y: 17}
  - {x: 16, y: 17}
  - {x: 17, y: 17}
  - {x: 18, y: 17}
  - {x: 2, y: 18}
  - {x: 3, y: 18}
  - {x: 4, y: 18}
  - {x: 5, y: 18}
  - {x: 6, y: 18}
  - {x: 7, y: 18}
  - {x: 8, y: 18}
  - {x: 9, y: 18}
  - {x: 10, y: 18}
  - {x: 11, y: 18}
  - {x: 12, y: 18}
  - {x: 13, y: 18}
  - {x: 2, y: 19}
  - {x: 3, y: 19}
  - {x: 4, y: 19}
  - {x: 5, y: 19}
  - {x: 6, y: 19}
  - {x: 7, y: 19}
  - {x: 8, y: 19}
  - {x: 9, y: 19}
  - {x: 10, y: 19}
  - {x: 11, y: 19}
  - {x: 12, y: 19}
  - {x: 2, y: 20}
  - {x: 3, y: 20}
  - {x: 4, y: 20}
  - {x: 5, y: 20}
  - {x: 6, y: 20}
  - {x: 7, y: 20}
  - {x: 8, y: 20}
  - {x: 9, y: 20}
  - {x: 10, y: 20}
  - {x: 11, y: 20}
  - {x: 12, y: 20}
  - {x: 2, y: 21}
  - {x: 3, y: 21}
  - {x: 4, y: 21}
  - {x: 5, y: 21}
  - {x: 6, y: 21}
  - {x: 7, y: 21}
  - {x: 8, y: 21}
  - {x: 9, y: 21}
  - {x: 10, y: 21}
  - {x: 11, y: 21}
  - {x: 12, y: 21}
  - {x: 2, y: 22}
  - {x: 3, y: 22}
  - {x: 4, y: 22}
  - {x: 5, y: 22}
  - {x: 6, y: 22}
  - {x: 7, y: 22}
  - {x: 8, y: 22}
  - {x: 9, y: 22}
  - {x: 10, y: 22}
  - {x: 11, y: 22}
  - {x: 12, y: 22}
  unitSpaceWalls:
  - {x: 6, y: 0}
  - {x: 7, y: 0}
  - {x: 8, y: 0}
  - {x: 9, y: 0}
  - {x: 10, y: 0}
  - {x: 11, y: 0}
  - {x: 12, y: 0}
  - {x: 13, y: 0}
  - {x: 14, y: 0}
  - {x: 15, y: 0}
  - {x: 16, y: 0}
  - {x: 17, y: 0}
  - {x: 5, y: 1}
  - {x: 18, y: 1}
  - {x: 5, y: 2}
  - {x: 18, y: 2}
  - {x: 5, y: 3}
  - {x: 18, y: 3}
  - {x: 5, y: 4}
  - {x: 18, y: 4}
  - {x: 5, y: 5}
  - {x: 18, y: 5}
  - {x: 5, y: 6}
  - {x: 18, y: 6}
  - {x: 2, y: 8}
  - {x: 3, y: 8}
  - {x: 19, y: 9}
  - {x: 19, y: 10}
  - {x: 0, y: 11}
  - {x: 19, y: 11}
  - {x: 0, y: 12}
  - {x: 19, y: 12}
  - {x: 0, y: 13}
  - {x: 19, y: 13}
  - {x: 0, y: 14}
  - {x: 19, y: 14}
  - {x: 0, y: 15}
  - {x: 19, y: 15}
  - {x: 19, y: 16}
  - {x: 19, y: 17}
  - {x: 1, y: 18}
  - {x: 15, y: 18}
  - {x: 16, y: 18}
  - {x: 17, y: 18}
  - {x: 18, y: 18}
  - {x: 1, y: 19}
  - {x: 1, y: 20}
  - {x: 13, y: 20}
  - {x: 1, y: 21}
  - {x: 13, y: 21}
  - {x: 1, y: 22}
  - {x: 13, y: 22}
  - {x: 2, y: 23}
  - {x: 3, y: 23}
  - {x: 4, y: 23}
  - {x: 5, y: 23}
  - {x: 6, y: 23}
  - {x: 7, y: 23}
  - {x: 8, y: 23}
  - {x: 9, y: 23}
  - {x: 10, y: 23}
  - {x: 11, y: 23}
  - {x: 12, y: 23}
